AWSTATS DATA FILE 7.0 (build 1.971)
# If you remove this file, all statistics for date 201509 will be lost/reset.
# Last config file used to build this data file was /etc/awstats/awstats.madagaskar.com.ru.conf.

# Position (offset in bytes) in this file for beginning of each section for
# direct I/O access. If you made changes somewhere in this file, you should
# also remove completely the MAP section (AWStats will rewrite it at next
# update).
BEGIN_MAP 27
POS_GENERAL 1997                
POS_TIME 2671                
POS_VISITOR 62480               
POS_DAY 86433               
POS_DOMAIN 3674                
POS_LOGIN 3909                
POS_ROBOT 4064                
POS_WORMS 4773                
POS_EMAILSENDER 4904                
POS_EMAILRECEIVER 5047                
POS_SESSION 87236               
POS_SIDER 87447               
POS_FILETYPES 5182                
POS_DOWNLOADS 5457                
POS_OS 5528                
POS_BROWSER 5690                
POS_SCREENSIZE 7516                
POS_UNKNOWNREFERER 7590                
POS_UNKNOWNREFERERBROWSER 7724                
POS_ORIGIN 7826                
POS_SEREFERRALS 7976                
POS_PAGEREFS 8169                
POS_SEARCHWORDS 11237               
POS_KEYWORDS 47961               
POS_MISC 2333                
POS_ERRORS 59237               
POS_CLUSTER 3765                
POS_SIDER_404 59375               
END_MAP

# LastLine    = Date of last record processed - Last record line number in last log - Last record offset in last log - Last record signature value
# FirstTime   = Date of first visit for history file
# LastTime    = Date of last visit for history file
# LastUpdate  = Date of last update - Nb of parsed records - Nb of parsed old records - Nb of parsed new records - Nb of parsed corrupted - Nb of parsed dropped
# TotalVisits = Number of visits
# TotalUnique = Number of unique visitors
# MonthHostsKnown   = Number of hosts known
# MonthHostsUnKnown = Number of hosts unknown
BEGIN_GENERAL 8
LastLine 20151001000018 2262 1269487 17321098658478
FirstTime 0
LastTime 20150930235300
LastUpdate 20151001000251 169 0 168 0 0
TotalVisits 621                 
TotalUnique 566                 
MonthHostsKnown 0                   
MonthHostsUnknown 575                 
END_GENERAL

# Misc ID - Pages - Hits - Bandwidth
BEGIN_MISC 10
QuickTimeSupport 0 0 0
JavaEnabled 0 0 0
JavascriptDisabled 0 0 0
PDFSupport 0 0 0
WindowsMediaPlayerSupport 0 0 0
AddToFavourites 0 458 0
RealPlayerSupport 0 0 0
TotalMisc 0 0 0
DirectorSupport 0 0 0
FlashSupport 0 0 0
END_MISC

# Hour - Pages - Hits - Bandwidth - Not viewed Pages - Not viewed Hits - Not viewed Bandwidth
BEGIN_TIME 24
0 87 1724 50176328 171 244 9685422
1 36 853 21309176 211 386 11490804
2 2 2 112842 232 400 12545691
3 58 729 23066330 244 559 14547341
4 36 479 15384276 225 287 12216875
5 32 383 10335458 218 277 11955445
6 26 346 8606391 195 244 10790216
7 46 473 14910560 249 261 12689981
8 137 1286 44619492 219 264 12922643
9 165 1489 53697059 228 393 13346018
10 200 1826 63390960 199 241 11279582
11 183 1696 53461813 222 292 12147691
12 206 1898 61511825 222 266 12253268
13 151 1478 48066747 204 319 13407495
14 213 1994 64689851 277 404 12970723
15 211 1772 59352394 205 275 11250732
16 158 1456 48797558 250 609 16067989
17 89 851 28841459 206 269 12257710
18 120 1178 40757143 213 322 12282065
19 107 1092 37416475 223 313 12438668
20 126 1198 38615760 216 382 12305058
21 165 1658 57104410 296 366 16128648
22 115 1053 36679872 394 616 22961515
23 88 989 32684760 325 565 19049840
END_TIME

# Domain - Pages - Hits - Bandwidth
# The 10 first Pages must be first (order not required for others)
BEGIN_DOMAIN 1
ip 2757 27903 913588939
END_DOMAIN

# Cluster ID - Pages - Hits - Bandwidth
BEGIN_CLUSTER 0
END_CLUSTER

# Login - Pages - Hits - Bandwidth - Last visit
# The 10 first Pages must be first (order not required for others)
BEGIN_LOGIN 0
END_LOGIN

# Robot ID - Hits - Bandwidth - Last visit - Hits on robots.txt
# The 10 first Hits must be first (order not required for others)
BEGIN_ROBOT 16
yandex 6484 276684911 20150930235954 70
googlebot 693 15245905 20150930235221 62
bot[\s_+:,\.\;\/\\-] 395 20613319 20150930235718 20
no_user_agent 116 3183924 20150929223108 2
phantom 22 85114 20150927163111 0
mj12bot 20 564530 20150925063012 10
crawl 9 302363 20150929201657 1
favicon 3 169263 20150929184024 0
robot 3 56485 20150923104232 2
slurp 2 56453 20150921064807 1
mail\.ru 1 32 20150923101231 1
ng\/1\. 1 56421 20150924224758 0
unknown 1 32 20150909210427 1
surveybot 2 56453 20150907080337 1
archive\.org_bot 1 32 20150918070211 1
cfnetwork 2 2452 20150928100335 0
END_ROBOT

# Worm ID - Hits - Bandwidth - Last visit
# The 5 first Hits must be first (order not required for others)
BEGIN_WORMS 0
END_WORMS

# EMail - Hits - Bandwidth - Last visit
# The 20 first Hits must be first (order not required for others)
BEGIN_EMAILSENDER 0
END_EMAILSENDER

# EMail - Hits - Bandwidth - Last visit
# The 20 first hits must be first (order not required for others)
BEGIN_EMAILRECEIVER 0
END_EMAILRECEIVER

# Files type - Hits - Bandwidth - Bandwidth without compression - Bandwidth after compression
BEGIN_FILETYPES 10
eot 221 11024715 0 0
css 2462 42139183 0 0
png 567 37183312 0 0
ttf 406 47711264 0 0
woff 1372 74963000 0 0
php 1 104 0 0
html 757 41953455 0 0
js 15950 85340958 0 0
jpg 5057 568409872 0 0
gif 1110 4863076 0 0
END_FILETYPES

# Downloads - Hits - Bandwidth
BEGIN_DOWNLOADS 1
/robots.txt 172 0 5504
END_DOWNLOADS

# OS ID - Hits
BEGIN_OS 10
linuxandroid 2903
winlong 300
winxp 3921
winnt 671
linux 280
winvista 2298
win7 14548
macosx 2927
winunknown 52
Unknown 3
END_OS

# Browser ID - Hits
BEGIN_BROWSER 93
chrome44.0.2403.125 97
chrome47.0.2522.0 48
chrome40.0.2214.115 137
chrome45.0.2454.85 3359
chrome28.0.1500.94 248
chrome39.0.2171.95 2
firefox18.0 1
firefox4.0 49
chrome38.0.2125.111 137
chrome31.0.1650.57 399
curl 1
chrome31.0.1650.63 367
chrome24.0.1312.71 92
msie8.0 783
chrome11.0.696.34 47
msie7.0 9
chrome27.0.1453.93 44
firefox23.0 49
chrome37.0.2062.120 2
chrome17.0.963.46 48
firefox41.0 288
chrome30.0.1599.82 48
chrome41.0.2272.89 1
chrome28.0.1500.74 44
chrome47.0.2508.0 48
chrome42.0.2311.152 567
chrome45.0.2454.99 919
firefox40.0 1895
lg\- 94
firefox29.0 48
chrome28.0.1500.75 44
firefox38.0 191
firefox2.0.0.6 1
chrome47.0.2503.0 48
chrome30.0.1599.69 44
firefox33.0 1
mozilla 936
firefox25.0 352
chrome44.0.2403.157 88
chrome42.0.2311.254 337
chrome42.0.2311.135 96
chrome44.0.2403.89 49
chrome45.0.2421.0 48
netscape4.0 1
chrome45.0.2454.84 460
chrome44.0.2403.133 240
safari 570
firefox35.0 102
safari7.0 416
firefox5.0 49
firefox4.0.1 2
chrome43.0.2357.124 4211
android 842
chrome43.0.2357.78 48
chrome28.0.1500.95 612
chrome47.0.2498.0 96
chrome17.0.963.47 49
opera9.80 601
iphone 62
chrome43.0.2357.81 48
chrome41.0.2272.168 49
chrome41.0.2272.101 1
chrome45.0.2454.93 1566
chrome38.0.2125.122 48
firefox16.0 54
chrome43.0.2357.93 49
safari8.0 697
msie9.0 236
chrome18.0.1025.1634 49
Unknown 2
chrome30.0.1599.101 96
chrome30.0.0.0 98
firefox32.0 48
safari8.0.8 769
chrome32.0.1725.115 48
chrome25.0.1349.2 47
chrome44.0.2403.155 678
chrome41.0.2272.118 246
chrome41.0.2272.172 49
chrome28.0.1500.71 92
chrome45.2.2454.18 48
chrome43.0.2357.132 48
chrome44.0.2403.107 48
chrome45.0.2454.94 349
nokia 104
safari9.0 96
chrome45.0.2454.101 860
firefox39.0 114
chrome19.0.1084.5409 1
chrome25.0.1364.172 180
msie10.0 477
safari5.1 93
chrome20.0.1207.0 48
END_BROWSER

# Screen size - Hits
BEGIN_SCREENSIZE 0
END_SCREENSIZE

# Unknown referer OS - Last visit date
BEGIN_UNKNOWNREFERER 2
Ruby 20150928100251
Mozilla/4.0 20150927163042
END_UNKNOWNREFERER

# Unknown referer Browser - Last visit date
BEGIN_UNKNOWNREFERERBROWSER 1
Ruby 20150928100251
END_UNKNOWNREFERERBROWSER

# Origin - Pages - Hits 
BEGIN_ORIGIN 6
From0 179 184
From1 0 0
From2 452 538
From3 290 2472
From4 1836 24709
From5 0 0
END_ORIGIN

# Search engine referers ID - Pages - Hits
BEGIN_SEREFERRALS 4
google 32 75
bing 2 2
rambler 2 2
yandex 416 459
END_SEREFERRALS

# External page referers - Pages - Hits
# The 10 first Pages must be first (order not required for others)
BEGIN_PAGEREFS 51
http://birth.madagaskar.com.ru/css/fonts.css 120 120
http://birth.madagaskar.com.ru 49 2137
http://go.mail.ru/search 36 36
http://volzhsky.biglion.ru/deals/planetaleto-67/ 29 29
http://vk.com/away.php 7 7
http://vk.com/kindcity 4 4
http://otprazdnuem.com/idei-podarkov/9-let-svad-by-sovety-po-vyboru-podarka.html 2 2
http://adhelper.org/dynamical/dur.php 2 2
http://qq.by/40814-gde-mozhno-otpraznyvat-den-rozhdeniya-12-let.html 2 2
http://www.volzsky.ru 2 2
http://volgograd.zoon.ru/entertainment/type/detskij_tsentr/ 1 1
http://domovenok-as.ru/volshebnyi-korob/detskie-zagadki/zagadki-dlja-3-klasa-s-otvetami.html 1 1
http://tostun.ru/pozdrav/den-rozhdeniya/tete/ 1 1
http://wikimapia.org/7394791/ru/24-%D0%B9-%D0%BC%D0%B8%D0%BA%D1%80%D0%BE%D1%80%D0%B0%D0%B9%D0%BE%D0%BD 1 1
http://rupaintball.com/volzhskiy/entertainment/3 1 1
http://volzhskii.spravker.ru/organizatsiya-i-provedenie-detskih-prazdnikov/ 1 1
http://otprazdnuem.com/oformlenie/kak-ukrasit-stol-na-den-rozhdeniya-rebenka-chtoby-malen-kie-gosti-ostalis-v-vostorge.html 1 1
http://birth.madagaskar.com.ru/thx/ 0 6
http://igrydljadevochek2.ru 1 1
http://podarokgid.ru/rebenku/chto-podarit-devochke-na-9-let.html 1 1
http://vashechudo.ru/detskoe-tvorchestvo-i-dosug/scenari-prazdnikov-dlja-detskogo-sada/prazdnik-oseni-v-srednei-grupe-scenarii/page-2.html 1 1
http://anekdotov.net/anekdot/random4.html 1 1
http://bowlingclubs.pro/ru/volga/sputnik/ 1 1
http://calendar.yoip.ru/work/2015-proizvodstvennyj-calendar.html 1 1
http://birth.madagaskar.com.ru/halloween/ 0 15
http://scenario.fome.ru/ras-3-40.html 1 1
http://volzhsky.biglion.ru/r/city/deal/index.php 1 1
http://gor-gid.ru/search 1 1
http://pozdravok.ru/pozdravleniya/yubiley/zhenshchine/ 1 1
http://gotovim-doma.ru/view.php 1 1
http://8443.org 1 1
http://www.kakprosto.ru/kak-38630-kak-opredelit-molekulyarnuyu-massu 1 1
http://pulsportal.ru/gde-v-volzhskom-otmetit-den-rozhdeniya/ 1 1
http://www.podelkidetkam.ru/podelki-iz-ovoshhej-svoimi-rukami 1 1
http://prazdnik.rx24.ru/cerkovnye-prazdniki/ 1 1
http://birth.madagaskar.com.ru/css/main.css 0 60
http://www.sunhome.ru/cards/116606 1 1
http://otebe.info/stihi/blagodarnost-v-stihah.html 1 1
http://sygrayka.ru/scenarii/den-rozhdeniya/ 1 1
http://volzhskii.spravker.ru/detskie-razvivaiushchie/ 1 1
http://womanadvice.ru/ikebana-osen-svoimi-rukami 1 1
http://bloknot-volzhsky.ru/narod/opyat-razvod-na-avito/ 1 1
http://birth.madagaskar.com.ru/thx.html 0 13
http://vk.com/id268400189 1 1
http://m.passion.ru/health/khoroshee-samochuvstvie/lechenie-bez-tabletok/dieta-pri-vysokom-gemoglobine.htm 1 1
http://volzhskiy.spravkarf.ru/firm/detskiy_centr_fadeyka 1 1
http://nicstyle.ru/2015/musulmanskie-prazdniki-2015-goda.html 1 1
http://rupaintball.com/volzhskiy/paintball/peyntbolnyy_klub_rusich 1 1
http://www.astromeridian.ru/goroskop/goroskop_po_dnjam_rogdenija.html 1 1
http://clk.golinks.org 1 1
http://www.biglion.ru/r/user/coupons/index.php 1 1
END_PAGEREFS

# Search keyphrases - Number of search
# The 10 first number of search must be first (order not required for others)
BEGIN_SEARCHWORDS 185
%d0%bf%d0%be%d0%b7%d0%b4%d1%80%d0%b0%d0%b2%d0%bb%d0%b5%d0%bd%d0%b8%d1%8f+%d1%81+%d0%b4%d0%bd%d0%b5%d0%bc+%d1%80%d0%be%d0%b6%d0%b4%d0%b5%d0%bd%d0%b8%d1%8f 18
%d0%b4%d0%b5%d0%bd%d1%8c+%d0%b3%d0%be%d1%80%d0%be%d0%b4%d0%b0+%d0%b2%d0%be%d0%bb%d0%b3%d0%be%d0%b3%d1%80%d0%b0%d0%b4%d0%b0+2015+%d0%bf%d1%80%d0%be%d0%b3%d1%80%d0%b0%d0%bc%d0%bc%d0%b0+%d0%bc%d0%b5%d1%80%d0%be%d0%bf%d1%80%d0%b8%d1%8f%d1%82%d0%b8%d0%b9 16
%d0%bf%d0%be%d0%b7%d0%b4%d1%80%d0%b0%d0%b2%d0%bb%d0%b5%d0%bd%d0%b8%d0%b5+%d1%81+%d0%b4%d0%bd%d0%b5%d0%bc+%d1%80%d0%be%d0%b6%d0%b4%d0%b5%d0%bd%d0%b8%d1%8f 5
%d0%bd%d0%be%d0%b2%d0%be%d0%b3%d0%be%d0%b4%d0%bd%d0%b8%d0%b5+%d0%bf%d1%80%d0%b0%d0%b7%d0%b4%d0%bd%d0%b8%d0%ba%d0%b8+%d0%b2+2016+%d0%b3%d0%be%d0%b4%d1%83+%d0%ba%d0%b0%d0%ba+%d0%be%d1%82%d0%b4%d1%8b%d1%85%d0%b0%d0%b5%d0%bc 4
%d1%81+%d0%b4%d0%bd%d0%b5%d0%bc+%d1%80%d0%be%d0%b6%d0%b4%d0%b5%d0%bd%d0%b8%d1%8f+%d0%bf%d0%be%d0%b7%d0%b4%d1%80%d0%b0%d0%b2%d0%bb%d0%b5%d0%bd%d0%b8%d1%8f 4
%d0%bf%d0%be%d0%b7%d0%b4%d1%80%d0%b0%d0%b2%d0%bb%d0%b5%d0%bd%d0%b8%d0%b5+%d0%bc%d0%b0%d0%bb%d1%8c%d1%87%d0%b8%d0%ba%d1%83+%d0%bd%d0%b0+9+%d0%bb%d0%b5%d1%82+%d1%81+%d0%b4%d0%bd%d0%b5%d0%bc+%d1%80%d0%be%d0%b6%d0%b4%d0%b5%d0%bd%d0%b8%d1%8f 3
%d0%b4%d0%b5%d1%82%d1%81%d0%ba%d0%be%d0%b5+%d0%bc%d0%b5%d0%bd%d1%8e+%d0%bd%d0%b0+%d0%b4%d0%b5%d0%bd%d1%8c+%d1%80%d0%be%d0%b6%d0%b4%d0%b5%d0%bd%d0%b8%d1%8f+%d1%81+%d1%84%d0%be%d1%82%d0%be+%d0%b8+%d1%80%d0%b5%d1%86%d0%b5%d0%bf%d1%82%d0%b0%d0%bc%d0%b8 3
%d0%9f%d0%9e%d0%97%d0%94%d0%a0%d0%90%d0%92%d0%9b%d0%95%d0%9d%d0%98%d0%95+%d0%a1+%d0%94%d0%9d%d0%95%d0%9c+%d0%a0%d0%9e%d0%96%d0%94%d0%95%d0%9d%d0%98%d0%af+%d0%9a%d0%9b%d0%9e%d0%a3%d0%9d%d0%9e%d0%9c+%d0%94%d0%95%d0%a2%d0%af+4+%d0%93%d0%9e%d0%94%d0%90 3
%d0%b0%d0%bd%d0%b8%d0%bc%d0%b0%d1%82%d0%be%d1%80+%d0%b2%d0%be%d0%bb%d0%b6%d1%81%d0%ba%d0%b8%d0%b9 3
%d0%be%d1%80%d0%b8%d0%b3%d0%b8%d0%bd%d0%b0%d0%bb%d1%8c%d0%bd%d0%be%d0%b5+%d0%bf%d0%be%d0%b7%d0%b4%d1%80%d0%b0%d0%b2%d0%bb%d0%b5%d0%bd%d0%b8%d0%b5+%d1%81+%d0%b4%d0%bd%d0%b5%d0%bc+%d1%80%d0%be%d0%b6%d0%b4%d0%b5%d0%bd%d0%b8%d1%8f 2
11+%d1%81%d0%b5%d0%bd%d1%82%d1%8f%d0%b1%d1%80%d1%8f2015+%d0%bf%d1%80%d0%b0%d0%b7%d0%b4%d0%bd%d0%b8%d0%ba+%d0%b2%d0%be%d0%bb%d0%b3%d0%be%d0%b3%d1%80%d0%b0%d0%b4 1
%d1%88%d0%ba%d0%be%d0%bb%d1%8c%d0%bd%d1%8b%d0%b5+%d0%bf%d1%80%d0%b0%d0%b7%d0%b4%d0%bd%d0%b8%d0%ba%d0%b8 1
%d0%bf%d0%b5%d1%80%d0%b2%d1%8b%d0%b9+%d0%b4%d0%b5%d0%bd%d1%8c+%d1%80%d0%be%d0%b6%d0%b4%d0%b5%d0%bd%d0%b8%d1%8f+%d0%bc%d0%b0%d0%bb%d1%8b%d1%88%d0%b0+%d0%be%d1%84%d0%be%d1%80%d0%bc%d0%bb%d0%b5%d0%bd%d0%b8%d0%b5 1
120+%d0%bb%d0%b5%d1%82+%d1%81%d0%be+%d0%b4%d0%bd%d1%8f+%d1%80%d0%be%d0%b6%d0%b4%d0%b5%d0%bd%d0%b8%d1%8f+%d0%b5%d1%81%d0%b5%d0%bd%d0%b8%d0%bd%d0%b0 1
%d0%b2%d0%be%d0%bb%d0%b3%d0%be%d0%b3%d1%80%d0%b0%d0%b4+%d0%bd%d0%b0+%d0%b2%d1%8b%d1%85%d0%be%d0%b4%d0%bd%d1%8b%d0%b5 1
%d1%80%d0%b0%d1%81%d1%81%d0%ba%d0%b0%d0%b7+%d0%be+%d0%b3%d0%be%d1%80%d0%be%d0%b4%d0%b5+%d0%b2%d0%be%d0%bb%d0%b6%d1%81%d0%ba%d0%be%d0%bc+%d0%bc%d0%b0%d0%bb%d0%b5%d0%bd%d1%8c%d0%ba%d0%b8%d0%b9+%d0%b4%d0%bb%d1%8f+%d1%80%d0%b5%d0%b1%d0%b5%d0%bd%d0%ba%d0%b0 1
%d1%80%d0%be%d0%b6%d0%b4%d0%b5%d1%81%d1%82%d0%b2%d0%be+%d0%ba%d0%b0%d0%ba%d0%b4%d0%b5%d1%82%d1%8f%d0%bc+%d0%be%d0%b1%d1%8a%d1%8f%d1%81%d0%bd%d0%b8%d1%82%d1%8c+%d0%be+%d0%bf%d1%80%d0%b0%d0%b7%d0%b4%d0%bd%d0%b8%d0%ba%d0%b5 1
%d0%b4%d0%b5%d1%82%d1%81%d0%ba%d0%b8%d0%b9+%d1%82%d0%be%d1%80%d1%82+%d0%bd%d0%b0+%d0%b4%d0%b5%d0%bd%d1%8c+%d1%80%d0%be%d0%b6%d0%b4%d0%b5%d0%bd%d0%b8%d1%8f+%d0%b4%d0%bb%d1%8f+%d0%b4%d0%b5%d0%b2%d0%be%d1%87%d0%ba%d0%b8+%d0%b1%d0%b5%d0%b7+%d0%bc%d0%b0%d1%81%d1%82%d0%b8%d0%ba%d0%b8 1
%d1%81%d1%86%d0%b5%d0%bd%d0%b0%d1%80%d0%b8%d0%b9+%d0%bd%d0%b0+%d0%b4%d0%b5%d0%bd%d1%8c+%d1%80%d0%be%d0%b6%d0%b4%d0%b5%d0%bd%d0%b8%d1%8f+%d1%80%d0%b5%d0%b1%d0%b5%d0%bd%d0%ba%d0%b0+7+%d0%bb%d0%b5%d1%82+%d0%bc%d0%b0%d0%bb%d1%8c%d1%87%d0%b8%d0%ba%d1%83+%d1%82%d0%b5%d0%bc%d0%b0%d1%82%d0%b8%d1%87%d0%b5%d1%81%d0%ba%d0%b8%d0%b9 1
%d0%bf%d1%80%d0%b0%d0%b7%d0%b4%d0%bd%d0%b8%d0%ba%d0%b8+1+%d0%be%d0%ba%d1%82%d1%8f%d0%b1%d1%80%d1%8f 1
%d0%b3%d0%be%d1%80%d0%be%d0%b4+%d0%bc%d0%b0%d1%81%d1%82%d0%b5%d1%80%d0%be%d0%b2 2
%d1%81+15+%d0%bb%d0%b5%d1%82%d0%b8%d0%b5%d0%bc+%d0%b4%d0%b5%d0%bd%d1%8c+%d1%80%d0%be%d0%b6%d0%b4%d0%b5%d0%bd%d0%b8%d1%8f 1
%d0%ba%d0%b0%d0%ba+%d0%be%d1%80%d0%b8%d0%b3%d0%b8%d0%bd%d0%b0%d0%bb%d1%8c%d0%bd%d0%be+%d0%bf%d1%80%d0%b5%d0%bf%d0%be%d0%b4%d0%bd%d0%b5%d1%81%d1%82%d0%b8+%d0%bf%d0%be%d0%b4%d0%b0%d1%80%d0%be%d0%ba+%d0%bd%d0%b0+%d0%b4%d0%b5%d0%bd%d1%8c+%d1%80%d0%be%d0%b6%d0%b4%d0%b5%d0%bd%d0%b8%d1%8f 1
%d0%bf%d0%be%d0%b7%d0%b4%d1%80%d0%b0%d0%b2%d0%bb%d0%b5%d0%bd%d0%b8%d1%8f+%d1%81+%d0%b4%d0%bd%d0%b5%d0%bc+%d1%80%d0%be%d0%b6%d0%b4%d0%b5%d0%bd%d0%b8%d1%8f+%d1%80%d0%b5%d0%b1%d0%b5%d0%bd%d0%ba%d1%83+4+%d0%b3%d0%be%d0%b4%d0%b0+%d0%b4%d0%b5%d0%b2%d0%be%d1%87%d0%ba%d0%b5+%d0%b2+%d0%bf%d1%80%d0%be%d0%b7%d0%b5 1
%d0%b7%d0%b0%d0%ba%d0%b0%d0%b7+%d1%82%d0%be%d1%80%d1%82%d0%be%d0%b2+%d0%bd%d0%b0+%d0%b4%d0%b5%d0%bd%d1%8c+%d1%80%d0%be%d0%b6%d0%b4%d0%b5%d0%bd%d0%b8%d1%8f+%d0%b4%d0%bb%d1%8f+%d0%b4%d0%b5%d0%b2%d0%be%d1%87%d0%b5%d0%ba 1
23+%d1%81%d0%b5%d0%bd%d1%82%d1%8f%d0%b1%d1%80%d1%8f+%d0%ba%d0%b0%d0%ba%d0%be%d0%b9+%d0%bf%d1%80%d0%b0%d0%b7%d0%b4%d0%bd%d0%b8%d0%ba 1
%d0%bf%d0%be%d0%bf%d1%81%d0%b0+%d0%bf%d1%80%d0%be+%d0%b4%d0%b5%d0%bd%d1%8c+%d1%80%d0%be%d0%b6%d0%b4%d0%b5%d0%bd%d0%b8%d1%8f 1
%d0%b8%d0%b3%d1%80%d1%8b+%d0%b4%d0%bb%d1%8f+%d0%b4%d0%b5%d0%b2%d0%be%d1%87%d0%b5%d0%ba+%d0%b2%d0%b8%d0%bd%d0%ba%d1%81+%d0%b4%d0%b5%d0%bd%d1%8c+%d1%80%d0%be%d0%b6%d0%b4%d0%b5%d0%bd%d0%b8%d1%8f+%d0%b1%d0%bb%d1%83%d0%bc+%d0%b8%d0%b3%d1%80%d0%b0%d1%82%d1%8c+%d1%81%d0%b5%d0%b9%d1%87%d0%b0%d1%81 1
%d1%81%d1%82%d0%b8%d1%85%d0%b8+%d1%81+%d0%b4%d0%bd%d1%91%d0%bc+%d1%80%d0%be%d0%b6%d0%b4%d0%b5%d0%bd%d0%b8%d1%8f+%d0%b4%d0%b5%d1%82%d1%81%d0%ba%d0%b8%d0%b5 1
%d0%b8%d0%b3%d1%80%d0%b0%d1%82%d1%8c+%d0%b2+%d0%b8%d0%b3%d1%80%d1%8b+%d0%b4%d0%bb%d1%8f+%d0%b4%d0%b5%d0%b2%d0%be%d1%87%d0%b5%d0%ba+%d0%b2%d1%80%d0%b0%d1%87%d0%b0 1
%d0%bf%d1%80%d0%b0%d0%b7%d0%b4%d0%bd%d0%b8%d0%ba+%d0%ba%d0%b0%d0%b7%d0%b0%d1%87%d0%b5%d1%81%d1%82%d0%b2%d0%b0+%d0%b2+%d0%b2%d0%be%d0%bb%d0%b6%d1%81%d0%ba%d0%be%d0%bc 1
%d0%ba%d0%b0%d0%ba+%d1%83%d1%81%d1%82%d1%80%d0%be%d0%b8%d1%82%d1%8c+%d0%bf%d1%80%d0%b0%d0%b7%d0%b4%d0%bd%d0%b8%d0%ba+%d0%bd%d0%b0+%d0%b4%d0%b5%d0%bd%d1%8c+%d1%80%d0%be%d0%b6%d0%b4%d0%b5%d0%bd%d0%b8%d1%8f+%d1%80%d0%b5%d0%b1%d0%b5%d0%bd%d0%ba%d1%83+3+%d0%b3%d0%be%d0%b4%d0%b0 1
%d0%b3%d0%b4%d0%b5+%d0%be%d1%82%d0%bc%d0%b5%d1%82%d0%b8%d1%82%d1%8c+%d0%b4%d0%b5%d0%bd%d1%8c+%d1%80%d0%be%d0%b6%d0%b4%d0%b5%d0%bd%d0%b8%d1%8f+%d1%80%d0%b5%d0%b1%d0%b5%d0%bd%d0%ba%d0%b0+10+%d0%bb%d0%b5%d1%82 1
%d0%b3%d0%b4%d0%b5+%d0%be%d1%82%d0%bf%d1%80%d0%b0%d0%b7%d0%b4%d0%bd%d0%be%d0%b2%d0%b0%d1%82%d1%8c+%d0%b4%d0%b5%d0%bd%d1%8c+%d1%80%d0%be%d0%b6%d0%b4%d0%b5%d0%bd%d0%b8%d1%8f+%d0%b2+%d0%b2%d0%be%d0%bb%d0%b6%d1%81%d0%ba%d0%be%d0%bc 1
%d0%bf%d0%be%d0%b7%d0%b4%d1%80%d0%b0%d0%b2%d0%bb%d0%b5%d0%bd%d0%b8%d1%8f+%d1%81+%d0%b4%d0%bd%d0%b5%d0%bc+%d1%80%d0%be%d0%b6%d0%b4%d0%b5%d0%bd%d0%b8%d1%8f+%d0%bc%d0%b0%d0%bb%d1%8c%d1%87%d0%b8%d0%ba%d1%83+2+%d0%b3%d0%be%d0%b4%d0%b0+%d0%bf%d1%80%d0%b8%d0%ba%d0%be%d0%bb%d1%8c%d0%bd%d1%8b%d0%b5 1
%d0%ba%d0%b0%d0%ba+%d1%83%d0%ba%d1%80%d0%b0%d1%81%d0%b8%d1%82%d1%8c+%d1%81%d1%82%d0%be%d0%bb+%d0%bd%d0%b0+%d0%b4%d0%b5%d0%bd%d1%8c+%d1%80%d0%be%d0%b6%d0%b4%d0%b5%d0%bd%d0%b8%d1%8f+%d1%80%d0%b5%d0%b1%d0%b5%d0%bd%d0%ba%d0%b0 1
%d0%bd%d0%b5%d0%be%d0%b1%d1%8b%d1%87%d0%bd%d1%8b%d0%b9+%d0%bf%d0%be%d0%b4%d0%b0%d1%80%d0%be%d0%ba+%d0%bd%d0%b0+%d0%b4%d0%b5%d0%bd%d1%8c+%d1%80%d0%be%d0%b6%d0%b4%d0%b5%d0%bd%d0%b8%d0%b5 1
%d0%b3%d0%b4%d0%b5+%d0%bc%d0%be%d0%b6%d0%bd%d0%be+%d0%be%d1%82%d0%bc%d0%b5%d1%82%d0%b8%d1%82%d1%8c+%d0%b4%d0%b5%d0%bd%d1%8c+%d1%80%d0%be%d0%b6%d0%b4%d0%b5%d0%bd%d0%b8%d0%b5+%d1%80%d0%b5%d0%b1%d0%b5%d0%bd%d0%ba%d0%b0+%d0%b2+%d0%b2%d0%be%d0%bb%d0%b6%d1%81%d0%ba%d0%be%d0%bc 1
%d0%ba%d0%b0%d1%84%d0%b5+%d0%b2+%d0%b2%d0%be%d0%bb%d0%b6%d1%81%d0%ba%d0%be%d0%bc+%d0%b4%d0%bb%d1%8f+%d0%b4%d0%b5%d0%bd%d1%8c+%d1%80%d0%be%d0%b6%d0%b4%d0%b5%d0%bd%d0%b8%d1%8f+%d1%80%d0%b5%d0%b1%d0%b5%d0%bd%d0%ba%d0%b0 1
%d0%bc%d0%b5%d1%80%d0%be%d0%bf%d1%80%d0%b8%d1%8f%d1%82%d0%b8%d1%8f+%d0%bd%d0%b0+%d0%b4%d0%b5%d0%bd%d1%8c+%d0%b3%d0%be%d1%80%d0%be%d0%b4%d0%b0+%d0%b2%d0%be%d0%bb%d0%b3%d0%be%d0%b3%d1%80%d0%b0%d0%b4%d0%b0+2015 1
%d0%bc%d0%b5%d1%80%d0%be%d0%bf%d1%80%d0%b8%d1%8f%d1%82%d0%b8%d1%8f+%d0%b4%d0%bb%d1%8f+%d0%b6%d0%b8%d1%82%d0%b5%d0%bb%d0%b5%d0%b9+%d0%b3%d0%be%d1%80%d0%be%d0%b4%d0%b0 1
%d0%ba%d0%b2%d0%b5%d1%81%d1%82+%d0%b8%d0%b3%d1%80%d0%b0+%d0%b4%d0%bb%d1%8f+%d0%b4%d0%bd%d1%8f+%d1%80%d0%be%d0%b6%d0%b4%d0%b5%d0%bd%d0%b8%d1%8f+%d1%80%d0%b5%d0%b1%d0%b5%d0%bd%d0%ba%d0%b0 1
%d0%b3%d0%b4%d0%b5+%d0%be%d1%82%d0%bc%d0%b5%d1%82%d0%b8%d1%82%d1%8c+%d0%b4%d0%b5%d1%82%d1%81%d0%ba%d0%b8%d0%b9+%d0%b4%d0%b5%d0%bd%d1%8c+%d1%80%d0%be%d0%b6%d0%b4%d0%b5%d0%bd%d0%b8%d1%8f+%d0%b7%d0%b8%d0%bc%d0%be%d0%b9 1
%d1%81%d0%be%d0%b1%d1%8b%d1%82%d0%b8%d1%8f+%d0%b2+%d0%b2%d0%be%d0%bb%d0%b6%d1%81%d0%ba%d0%be%d0%bc+%d0%be%d0%ba%d1%82%d1%8f%d0%b1%d1%80%d1%8c+%d0%bd%d0%be%d1%8f%d0%b1%d1%80%d1%8c+2015 1
%d0%b3%d0%b4%d0%b5+%d0%be%d1%82%d0%bf%d1%80%d0%b0%d0%b7%d0%b4%d0%bd%d0%be%d0%b2%d0%b0%d1%82%d1%8c+%d0%b4%d0%b5%d0%bd%d1%8c+%d1%80%d0%be%d0%b6%d0%b4%d0%b5%d0%bd%d0%b8%d1%8f+%d1%80%d0%b5%d0%b1%d0%b5%d0%bd%d0%ba%d1%83+%d0%b2+%d0%b2%d0%be%d0%bb%d0%b6%d1%81%d0%ba%d0%be%d0%bc 1
%d0%bf%d0%be%d0%b7%d0%b4%d1%80%d0%b0%d0%b2%d0%bb%d0%b5%d0%bd%d0%b8%d0%b5+%d0%b7%d0%b0%d0%b2%d0%b5%d0%b4%d1%83%d1%8e%d1%89%d0%b5%d0%b9+%d1%81+%d0%b4%d0%bd%d0%b5%d0%bc+%d1%80%d0%be%d0%b6%d0%b4%d0%b5%d0%bd%d0%b8%d1%8f 1
%d0%b3%d0%b4%d0%b5+%d0%bf%d1%80%d0%be%d0%b2%d0%b5%d1%81%d1%82%d0%b8+%d0%b4%d0%b5%d0%bd%d1%8c+%d1%80%d0%be%d0%b6%d0%b4%d0%b5%d0%bd%d0%b8%d1%8f+%d1%80%d0%b5%d0%b1%d0%b5%d0%bd%d0%ba%d0%b0+%d0%b2+%d0%b2%d0%be%d0%bb%d0%b6%d1%81%d0%ba%d0%be%d0%bc 1
%d1%87%d1%82%d0%be+%d0%bf%d0%be%d0%b4%d0%b0%d1%80%d0%b8%d1%82%d1%8c+%d1%80%d0%b5%d0%b1%d1%91%d0%bd%d0%ba%d1%83+%d0%bd%d0%b0+2+%d0%b3%d0%be%d0%b4%d0%b0+%d0%b4%d0%b5%d0%b2%d0%be%d1%87%d0%ba%d0%b5+%d0%bd%d0%b0+%d0%b4%d0%b5%d0%bd%d1%8c+%d1%80%d0%be%d0%b6%d0%b4%d0%b5%d0%bd%d0%b8%d1%8f 1
%d0%b3%d0%b4%d0%b5+%d0%be%d1%82%d0%bc%d0%b5%d1%82%d0%b8%d1%82%d1%8c+%d0%b4%d0%b5%d0%bd%d1%8c+%d1%80%d0%be%d0%b6%d0%b4%d0%b5%d0%bd%d0%b8%d1%8f+%d0%b2+%d0%b2%d0%be%d0%bb%d0%b3%d0%be%d0%b3%d1%80%d0%b0%d0%b4%d0%b5 2
%d0%b8%d0%b4%d0%b5%d0%b8+%d0%b4%d0%bb%d1%8f+%d0%b4%d0%bd%d1%8f+%d1%80%d0%be%d0%b6%d0%b4%d0%b5%d0%bd%d0%b8%d1%8f 1
%d0%b2%d0%be%d0%bb%d0%b6%d1%81%d0%ba%d0%b8%d0%b9+%d0%bf%d1%80%d0%be%d0%b2%d0%b5%d0%b4%d0%b5%d0%bd%d0%b8%d0%b5+%d0%bf%d1%80%d0%b0%d0%b7%d0%b4%d0%bd%d0%b8%d0%ba%d0%b0+%d0%b4%d0%b5%d0%bd%d1%8c+%d1%80%d0%be%d0%b6%d0%b4%d0%b5%d0%bd%d0%b8%d1%8f+13+%d0%bb%d0%b5%d1%82 1
%d1%81+%d0%b4%d0%bd%d1%91%d0%bc+%d1%80%d0%be%d0%b6%d0%b4%d0%b5%d0%bd%d0%b8%d1%8f+7+%d0%bb%d0%b5%d1%82+%d0%b4%d0%b5%d0%b2%d0%be%d1%87%d0%ba%d0%b5 2
%d0%ba%d0%b0%d1%84%d0%b5+%d0%b4%d0%bb%d1%8f+%d0%b4%d0%b5%d0%bd%d1%8c+%d1%80%d0%be%d0%b6%d0%b4%d0%b5%d0%bd%d0%b8%d1%8f+%d1%80%d0%b5%d0%b1%d0%b5%d0%bd%d0%ba%d0%b0+%d0%b2+%d0%b2%d0%be%d0%bb%d0%b6%d1%81%d0%ba%d0%be%d0%bc 2
%d0%bf%d0%be%d0%b7%d0%b4%d1%80%d0%b0%d0%b2%d0%bb%d0%b5%d0%bd%d0%b8%d1%8f+%d0%b4%d0%bd%d1%91%d0%bc+%d1%80%d0%be%d0%b6%d0%b4%d0%b5%d0%bd%d0%b8%d1%8f 1
%d0%b4%d0%b5%d1%82%d1%81%d0%ba%d0%b8%d0%b5+%d1%86%d0%b5%d0%bd%d1%82%d1%80%d1%8b+%d0%b2+%d0%b2%d0%be%d0%bb%d0%b6%d1%81%d0%ba%d0%be%d0%bc+%d0%b4%d0%bb%d1%8f+%d0%bf%d1%80%d0%b0%d0%b7%d0%b4%d0%bd%d0%b8%d0%ba%d0%b0 1
%d0%ba%d0%b0%d0%ba+%d0%bd%d0%b5%d0%be%d0%b1%d1%8b%d1%87%d0%bd%d0%be+%d0%be%d1%82%d0%bc%d0%b5%d1%82%d0%b8%d1%82%d1%8c+%d0%b4%d0%b5%d0%bd%d1%8c+%d1%80%d0%be%d0%b6%d0%b4%d0%b5%d0%bd%d0%b8%d1%8f 1
%d0%bd%d0%be%d1%8f%d0%b1%d1%80%d1%8c+%d0%bf%d1%80%d0%b0%d0%b7%d0%b4%d0%bd%d0%b8%d0%ba%d0%b8+2015 1
%d0%a8%d0%a3%d0%a2%d0%9e%d0%a7%d0%9d%d0%9e%d0%95+%d0%9f%d0%9e%d0%97%d0%94%d0%a0%d0%90%d0%92%d0%9b%d0%95%d0%9d%d0%98%d0%95+%d0%a1+%d0%94%d0%9d%d0%95%d0%9c+%d0%a0%d0%9e%d0%94%d0%96%d0%95%d0%9d%d0%98%d0%af 1
%d0%b4%d0%b5%d1%82%d1%81%d0%ba%d0%be%d0%b5+%d0%ba%d0%b0%d1%84%d0%b5+%d0%b4%d0%bb%d1%8f+%d0%b4%d0%bd%d1%8f+%d1%80%d0%be%d0%b6%d0%b4%d0%b5%d0%bd%d0%b8%d1%8f+%d0%b2%d0%be%d0%bb%d0%b6%d1%81%d0%ba%d0%b8%d0%b9 1
%d0%bf%d0%be%d0%b4%d0%b0%d1%80%d0%be%d0%ba+%d0%bd%d0%b0+%d0%b4%d0%b5%d0%bd%d1%8c+%d1%80%d0%be%d0%b6%d0%b4%d0%b5%d0%bd%d0%b8%d1%8f+%d0%b4%d0%b5%d0%b2%d0%be%d1%87%d0%ba%d0%b5+5+%d0%bb%d0%b5%d1%82 1
%d1%81+%d0%b4%d0%bd%d1%91%d0%bc+%d1%80%d0%be%d0%b6%d0%b4%d0%b5%d0%bd%d0%b8%d1%8f+%d0%b4%d0%b5%d0%b2%d0%be%d1%87%d0%ba%d0%b5+%d0%ba%d1%80%d0%b0%d1%81%d0%b8%d0%b2%d1%8b%d0%b5+%d0%bf%d0%be%d0%b7%d0%b4%d1%80%d0%b0%d0%b2%d0%bb%d0%b5%d0%bd%d0%b8%d1%8f 1
%d0%ba%d0%be%d0%bd%d0%ba%d1%83%d1%80%d1%81%d1%8b+%d0%bd%d0%b0+%d0%b4%d0%b5%d0%bd%d1%8c+%d1%80%d0%be%d0%b6%d0%b4%d0%b5%d0%bd%d0%b8%d1%8f+10+%d0%bb%d0%b5%d1%82+%d0%b4%d0%b5%d0%b2%d0%be%d1%87%d0%ba%d0%b5 1
%d0%b0%d0%bd%d0%b8%d0%bc%d0%b0%d1%82%d0%be%d1%80%d1%8b+%d0%bd%d0%b0+%d0%b4%d0%b5%d1%82%d1%81%d0%ba%d0%b8%d0%b9+%d0%b4%d0%b5%d0%bd%d1%8c+%d1%80%d0%be%d0%b6%d0%b4%d0%b5%d0%bd%d0%b8%d1%8f+%d1%81+%d0%bc%d1%8b%d0%bb%d1%8c%d0%bd%d1%8b%d0%bc%d0%b8+%d0%bf%d1%83%d0%b7%d1%8b%d1%80%d1%8f%d0%bc%d0%b8+%d0%b2%d0%be%d0%bb%d0%b6%d1%81%d0%ba%d0%b8%d0%b9 2
%d0%b2%d1%8b%d1%85%d0%be%d0%b4%d0%bd%d1%8b%d0%b5+%d0%b2+%d0%b2%d0%be%d0%bb%d0%b3%d0%be%d0%b3%d1%80%d0%b0%d0%b4%d0%b5 1
%d0%b3%d0%b4%d0%b5+%d0%be%d1%82%d0%bc%d0%b5%d1%82%d0%b8%d1%82%d1%8c+%d0%b4%d0%b5%d0%bd%d1%8c+%d1%80%d0%be%d0%b6%d0%b4%d0%b5%d0%bd%d0%b8%d1%8f+%d1%80%d0%b5%d0%b1%d0%b5%d0%bd%d0%ba%d0%b0+%d0%b2+%d0%b2%d0%be%d0%bb%d0%b6%d1%81%d0%ba%d0%be%d0%bc 2
%d1%84%d0%b8%d0%ba%d1%81%d0%b8%d0%ba%d0%b8+%d0%bd%d0%b0+%d0%b4%d0%b5%d0%bd%d1%8c+%d1%80%d0%be%d0%b6%d0%b4%d0%b5%d0%bd%d0%b8%d1%8f+%d1%80%d0%b5%d0%b1%d0%b5%d0%bd%d0%ba%d0%b0 1
%d1%81+%d0%b4%d0%bd%d0%b5%d0%bc+%d1%80%d0%be%d0%b6%d0%b4%d0%b5%d0%bd%d0%b8%d1%8f+%d0%b26+%d0%bb%d0%b5%d1%82 1
%d0%bf%d0%be%d0%b7%d0%b4%d1%80%d0%b0%d0%b2%d0%bb%d0%b5%d0%bd%d0%b8%d0%b5+%d1%81+%d0%b4%d0%bd%d0%b5%d0%bc+%d1%80%d0%be%d0%b6%d0%b4%d0%b5%d0%bd%d0%b8%d1%8f+%d0%b4%d0%be%d1%87%d0%b5%d1%80%d0%b8 1
%d0%be%d1%80%d0%b3%d0%b0%d0%bd%d0%b8%d0%b7%d0%b0%d1%86%d0%b8%d1%8f+%d0%b4%d0%b5%d1%82%d1%81%d0%ba%d0%be%d0%b3%d0%be+%d0%b4%d0%b5%d0%bd%d1%8c+%d1%80%d0%be%d0%b6%d0%b4%d0%b5%d0%bd%d0%b8%d1%8f+%d0%b2%d0%be%d0%bb%d0%b6%d1%81%d0%ba%d0%b8%d0%b9 1
%d0%be%d1%84%d0%be%d1%80%d0%bc%d0%bb%d0%b5%d0%bd%d0%b8%d0%b5+%d0%b4%d0%b5%d1%82%d1%81%d0%ba%d0%b8%d1%85+%d0%bf%d1%80%d0%b0%d0%b7%d0%b4%d0%bd%d0%b8%d0%ba%d0%be%d0%b2 1
%d0%bf%d0%be%d0%b7%d0%b4%d1%80%d0%b0%d0%b2%d0%bb%d0%b5%d0%bd%d0%b8%d1%8f+%d1%81+%d0%b4%d0%bd%d1%91%d0%bc+%d1%80%d0%be%d0%b6%d0%b4%d0%b5%d0%bd%d0%b8%d1%8f 1
%d0%b0%d0%bd%d0%b8%d0%bc%d0%b0%d1%82%d0%be%d1%80%d1%8b+%d0%bd%d0%b0%d1%83%d1%87%d0%bd%d0%be%d0%b5+%d1%88%d0%be%d1%83+%d0%bd%d0%b0+%d0%b4%d0%b5%d1%82%d1%81%d0%ba%d0%b8%d0%b9+%d0%b4%d0%b5%d0%bd%d1%8c+%d1%80%d0%be%d0%b6%d0%b4%d0%b5%d0%bd%d0%b8%d1%8f+%d0%b2%d0%be%d0%bb%d0%b3%d0%be%d0%b3%d1%80%d0%b0%d0%b4 1
%d0%ba%d0%b0%d0%ba%d0%b8%d0%b5+%d0%bd%d0%b0+%d0%b4%d0%b5%d0%bd%d1%8c+%d1%80%d0%be%d0%b6%d0%b4%d0%b5%d0%bd%d0%b8%d1%8f+%d0%b5%d1%81%d1%82%d1%8c+%d0%bf%d1%80%d0%b8%d1%87%d1%91%d1%81%d0%ba%d0%b8 1
12+09+2015+%d0%bf%d1%80%d0%be%d0%b7%d0%b4%d0%bd%d0%b8%d0%ba+%d0%b4%d0%b5%d0%bd%d1%8c+%d0%b3%d0%be%d1%80%d0%be%d0%b4%d0%b0 1
%d1%81%d0%b0%d0%bb%d0%b0%d1%82%d1%8b+%d0%b4%d0%bb%d1%8f+%d0%b4%d0%b5%d1%82%d1%81%d0%ba%d0%be%d0%b3%d0%be+%d0%b4%d0%bd%d1%8f+%d1%80%d0%be%d0%b6%d0%b4%d0%b5%d0%bd%d0%b8%d1%8f 2
%d0%ba%d0%b0%d0%ba%d0%b8%d0%b5+%d0%bf%d0%bb%d0%b0%d0%bd%d0%b8%d1%80%d1%83%d1%8e%d1%82%d1%81%d1%8f+%d0%bc%d0%b5%d1%80%d0%be%d0%bf%d1%80%d0%b8%d1%8f%d1%82%d0%b8%d1%8f+%d0%bd%d0%b0+%d0%b4%d0%b5%d0%bd%d1%8c+%d0%b3%d0%be%d1%80%d0%be%d0%b4%d0%b0+%d0%b2+%d0%b2%d0%be%d0%bb%d0%b3%d0%be%d0%b3%d1%80%d0%b0%d0%b4%d0%b5+2015 1
%d0%b2%d0%b5%d1%81%d0%b5%d0%bb%d1%8b%d0%b5+%d0%bf%d1%80%d0%be%d0%b3%d1%80%d0%b0%d0%bc%d0%bc%d1%8b+%d0%bd%d0%b0+%d0%b4%d0%b5%d0%bd%d1%8c+%d1%80%d0%be%d0%b6%d0%b4%d0%b5%d0%bd%d0%b8%d1%8f 1
%d0%b3%d0%b4%d0%b5+%d0%bc%d0%be%d0%b6%d0%bd%d0%be+%d0%be%d1%82%d0%bf%d1%80%d0%b0%d0%b7%d0%b4%d0%bd%d0%be%d0%b2%d0%b0%d1%82%d1%8c+%d0%b4%d0%b5%d0%bd%d1%8c+%d1%80%d0%be%d0%b6%d0%b4%d0%b5%d0%bd%d0%b8%d1%8f+15+%d0%bb%d0%b5%d1%82+%d0%b4%d0%b5%d0%b2%d0%be%d1%87%d0%ba%d0%b5 1
%d1%81+%d0%b4%d0%bd%d0%b5%d0%bc+%d1%80%d0%be%d0%b6%d0%b4%d0%b5%d0%bd%d0%b8%d1%8f+1+%d0%b3%d0%be%d0%b4%d0%b8%d0%ba+%d0%bc%d0%b0%d0%bb%d1%8c%d1%87%d0%b8%d0%ba%d1%83 1
9+%d0%bb%d0%b5%d1%82+%d1%81+%d0%b4%d0%bd%d0%b5%d0%bc+%d1%80%d0%be%d0%b6%d0%b4%d0%b5%d0%bd%d0%b8%d1%8f+%d1%81%d1%8b%d0%bd%d1%83 1
%d0%b2%d1%8b%d1%85%d0%be%d0%b4%d0%bd%d1%8b%d0%b5+%d0%bf%d1%80%d0%b0%d0%b7%d0%b4%d0%bd%d0%b8%d0%ba%d0%b8+%d0%b2+%d0%bd%d0%be%d1%8f%d0%b1%d1%80%d0%b5+2015 1
%d0%bf%d1%80%d0%b0%d0%b7%d0%b4%d0%bd%d0%b8%d0%ba%d0%b8+%d0%b2+%d0%b0%d0%bf%d1%80%d0%b5%d0%bb%d0%b5+2015 1
%d0%be%d1%80%d0%b3%d0%b0%d0%bd%d0%b8%d0%b7%d0%b0%d1%86%d0%b8%d1%8f+%d0%bf%d1%80%d0%b0%d0%b7%d0%b4%d0%bd%d0%b8%d0%ba%d0%be%d0%b2+%d0%b2+%d0%b2%d0%be%d0%bb%d0%b6%d1%81%d0%ba%d0%be%d0%bc 1
5+%d0%bb%d0%b5%d1%82+%d1%81+%d0%b4%d0%bd%d0%b5%d0%bc+%d1%80%d0%be%d0%b6%d0%b4%d0%b5%d0%bd%d0%b8%d1%8f+%d0%bc%d0%b0%d0%bb%d1%8c%d1%87%d0%b8%d0%ba%d1%83 1
%d0%b3%d0%b4%d0%b5+%d0%be%d1%82%d0%bc%d0%b5%d1%82%d0%b8%d1%82%d1%8c+%d0%b4%d0%b5%d0%bd%d1%8c+%d1%80%d0%be%d0%b6%d0%b4%d0%b5%d0%bd%d0%b8%d1%8f+%d0%b2+%d0%b2%d0%be%d0%bb%d0%b3%d0%be%d0%b3%d1%80%d0%b0%d0%b4%d0%b5+%d0%bd%d0%b5%d0%b4%d0%be%d1%80%d0%be%d0%b3%d0%be 1
%d0%b3%d0%b4%d0%b5+%d0%bc%d0%be%d0%b6%d0%bd%d0%be+%d0%be%d1%82%d0%bc%d0%b5%d1%82%d0%b8%d1%82%d1%8c+%d0%b4%d0%b5%d1%82%d1%81%d0%ba%d0%be%d0%b5+%d0%b4%d0%b5%d0%bd%d1%8c+%d1%80%d0%be%d0%b6%d0%b4%d0%b5%d0%bd%d0%b8%d0%b5+%d0%b2+%d0%b2%d0%be%d0%bb%d0%b6%d1%81%d0%ba%d0%be%d0%bc 2
%d0%ba%d0%b8%d0%bd%d0%b4%d0%b5%d1%80%d0%bc%d0%be%d0%bb%d0%bb+%d0%b2+%d0%b2%d0%be%d0%bb%d0%b3%d0%be%d0%b3%d1%80%d0%b0%d0%b4%d0%b5+%d0%be%d1%84%d0%b8%d1%86%d0%b8%d0%b0%d0%bb%d1%8c%d0%bd%d1%8b%d0%b9+%d1%81%d0%b0%d0%b9%d1%82 1
%d0%ba%d0%b0%d0%ba%d0%b8%d0%b5+%d0%bf%d1%80%d0%b0%d0%b7%d0%b4%d0%bd%d0%b8%d0%ba%d0%b8+%d0%be%d1%82%d0%bc%d0%b5%d1%87%d0%b0%d0%b5%d1%82+%d0%bb%d0%b5%d1%82%d0%be%d0%bc%3f 1
%d0%b4%d0%b5%d1%82%d1%81%d0%ba%d0%b8%d0%b9+%d0%b4%d0%b5%d0%bd%d1%8c+%d1%80%d0%be%d0%b6%d0%b4%d0%b5%d0%bd%d0%b8%d1%8f+%d1%84%d0%b8%d0%ba%d1%81%d0%b8%d0%ba%d0%b8 1
%d0%b3%d0%be%d1%80%d0%be%d0%b4+%d0%bc%d0%b0%d1%81%d1%82%d0%b5%d1%80%d0%be%d0%b2+%d0%b2%d0%be%d0%bb%d0%b3%d0%be%d0%b3%d1%80%d0%b0%d0%b4 2
%d1%87%d1%82%d0%be+%d0%bf%d0%be%d0%b4%d0%b0%d1%80%d0%b8%d1%82%d1%8c+%d0%bd%d0%b0+%d0%b4%d0%b5%d0%bd%d0%b1+%d1%80%d0%be%d0%b6%d0%b4%d0%b5%d0%bd%d0%b8%d1%8f+%d0%bc%d0%b0%d0%bb%d1%8c%d1%87%d0%b8%d0%ba%d1%83+10+%d0%bb%d0%b5%d1%82 1
%d1%85%d1%8d%d0%bd%d0%b4+%d0%bc%d0%b5%d0%b9%d0%b4+%d0%bf%d0%be%d0%b4%d0%b0%d1%80%d0%ba%d0%b8+%d0%bd%d0%b0+%d0%b4%d0%b5%d0%bd%d1%8c+%d1%80%d0%be%d0%b6%d0%b4%d0%b5%d0%bd%d0%b8%d1%8f 1
%d0%bf%d1%80%d0%b0%d0%b7%d0%b4%d0%bd%d0%b8%d0%ba+%d0%bb%d0%bf%d0%ba+2015 1
%d0%bc%d0%b5%d0%bd%d1%8e+%d0%bd%d0%b0+%d0%b4%d0%b5%d0%bd%d1%8c+%d1%80%d0%be%d0%b6%d0%b4%d0%b5%d0%bd%d0%b8%d1%8f+%d1%80%d0%b5%d0%b1%d0%b5%d0%bd%d0%ba%d0%b0+1+%d0%b3%d0%be%d0%b4 1
%d0%bd%d0%b0+%d1%81%d0%bb%d0%b5%d0%b4%d1%83%d1%8e%d1%89%d0%b8%d0%b9+%d1%81%d0%b2%d1%8b%d1%85%d0%be%d0%b4%d0%bd%d1%8b%d0%b5 1
%d0%bf%d1%80%d0%b0%d0%b7%d0%b4%d0%bd%d0%b8%d0%ba%d0%b8+%d0%b2+%d1%81%d0%b5%d0%bd%d1%82%d1%8f%d0%b1%d1%80%d0%b5 1
%d0%b3%d0%be%d1%80%d0%be%d0%b4+%d0%bc%d0%b0%d1%81%d1%82%d0%b5%d1%80%d0%be%d0%b2+%d0%bf%d0%be%d0%b4%d0%b5%d0%bb%d0%ba%d0%b8 1
%d0%bc%d0%b5%d1%80%d0%be%d0%bf%d1%80%d0%b8%d1%8f%d1%82%d0%b8%d1%8f+%d0%b2+%d0%b4%d0%b5%d0%bd%d1%8c+%d0%b3%d0%be%d1%80%d0%be%d0%b4%d0%b0+%d0%b2%d0%be%d0%bb%d0%b3%d0%be%d0%b3%d1%80%d0%b0%d0%b4%d0%b0+2015 1
%d1%87%d1%82%d0%be+%d0%bf%d0%be%d0%b4%d0%b0%d1%80%d0%b8%d1%82%d1%8c+%d1%80%d0%b5%d0%b1%d0%b5%d0%bd%d0%ba%d1%83+%d0%b2+3+%d0%b3%d0%be%d0%b4%d0%b0+%d0%bd%d0%b0+%d0%b4%d0%b5%d0%bd%d1%8c+%d1%80%d0%be%d0%b6%d0%b4%d0%b5%d0%bd%d0%b8%d1%8f 1
%d0%ba%d0%be%d0%bd%d0%ba%d1%83%d1%80%d1%81%d1%8b+%d0%bd%d0%b0+%d0%b4%d0%b5%d0%bd%d1%8c+%d1%80%d0%be%d0%b6%d0%b4%d0%b5%d0%bd%d0%b8%d1%8f+%d0%b4%d0%bb%d1%8f+%d0%b4%d0%b5%d1%82%d0%b5%d0%b9+%d1%84%d0%b8%d0%ba%d1%81%d0%b8%d0%ba%d0%b8 1
%d1%85%d0%be%d1%80%d0%be%d1%88%d0%b8%d0%b9+%d1%81%d1%82%d0%b8%d1%85+%d1%81+%d0%b4%d0%bd%d0%b5%d0%bc+%d1%80%d0%be%d0%b6%d0%b4%d0%b5%d0%bd%d0%b8%d1%8f+%d0%b4%d0%bb%d1%8f+%d0%b4%d0%b5%d0%b2%d0%be%d1%87%d0%ba%d0%b8+3+%d0%b3%d0%be%d0%b4%d0%b8%d0%ba%d0%b0 1
%d0%bd%d0%b5%d0%be%d0%b1%d1%8b%d1%87%d0%bd%d1%8b%d0%b5+%d0%b2%d0%b5%d1%87%d0%b5%d1%80%d0%b8%d0%bd%d0%ba%d0%b8 1
%d0%bf%d0%be%d0%b7%d0%b4%d1%80%d0%b0%d0%b2%d0%bb%d0%b5%d0%bd%d0%b8%d1%8f.%d1%81.%d0%b4%d0%bd%d0%b5%d0%bc.%d1%80%d0%be%d0%b6%d0%b4%d0%b5%d0%bd%d0%b8%d1%8f 1
%d0%ba%d0%b0%d0%ba+%d0%bc%d0%be%d0%b6%d0%bd%d0%be+%d0%be%d1%82%d0%bf%d1%80%d0%b0%d0%b7%d0%b4%d0%bd%d0%be%d0%b2%d0%b0%d1%82%d1%8c+%d0%b4%d0%b5%d0%bd%d1%8c+%d1%80%d0%be%d0%b6%d0%b4%d0%b5%d0%bd%d0%b8%d1%8f 1
%d0%b4%d0%b5%d1%82%d1%81%d0%ba%d0%b8%d0%b5+%d0%ba%d0%be%d0%bc%d0%bd%d0%b0%d1%82%d1%8b+%d0%b2%d0%be%d0%bb%d0%b6%d1%81%d0%ba%d0%b8%d0%b9 2
%d0%b4%d0%b5%d0%bd%d1%8c+%d1%80%d0%be%d0%b6%d0%b4%d0%b5%d0%bd%d0%b8%d1%8f+%d0%bc%d0%b0%d0%bb%d1%8c%d1%87%d0%b8%d0%ba%d0%b0+12+%d0%bb%d0%b5%d1%82+%d1%81%d1%86%d0%b5%d0%bd%d0%b0%d1%80%d0%b8%d0%b9 1
%d0%ba%d0%b0%d0%ba+%d0%b2%d1%8b+%d0%bf%d1%80%d0%b0%d0%b7%d0%b4%d0%bd%d0%be%d0%b2%d0%b0%d0%bb%d0%b8+%d0%bf%d0%b5%d1%80%d0%b2%d1%8b%d0%b9+%d0%b4%d0%b5%d0%bd%d1%8c+%d1%80%d0%be%d0%b6%d0%b4%d0%b5%d0%bd%d0%b8%d1%8f+%d1%80%d0%b5%d0%b1%d0%b5%d0%bd%d0%ba%d0%b0 1
23+%d1%81%d0%b5%d0%bd%d1%82%d1%8f%d0%b1%d1%80%d1%8f+2015+%d0%ba%d0%b0%d0%ba%d0%be%d0%b9+%d0%bf%d1%80%d0%b0%d0%b7%d0%b4%d0%bd%d0%b8%d0%ba 1
%d0%b7%d0%b0%d0%ba%d0%b0%d0%b7%d0%b0%d1%82%d1%8c+%d0%b2%d1%81%d0%b5+%d0%b4%d0%bb%d1%8f+%d0%bf%d1%80%d0%b0%d0%b7%d0%b4%d0%bd%d0%b8%d0%ba%d0%b0+%d0%b4%d0%b5%d1%88%d0%b5%d0%b2%d0%be 1
%d1%81%d0%bb%d1%83%d1%88%d0%b0%d1%82%d1%8c+%d0%bf%d0%b5%d1%81%d0%b5%d0%bd%d0%ba%d0%b8+%d0%bf%d1%80%d0%be+%d0%b4%d0%b5%d0%bd%d1%8c+%d1%80%d0%be%d0%b6%d0%b4%d0%b5%d0%bd%d0%b8%d1%8f+%d0%b4%d0%b5%d1%82%d1%81%d0%ba%d0%b8%d0%b5 1
%d0%be%d1%80%d0%b8%d0%b3%d0%b8%d0%bd%d0%b0%d0%bb%d1%8c%d0%bd%d1%8b%d0%b5+%d0%bf%d0%be%d0%b7%d0%b4%d1%80%d0%b0%d0%b2%d0%bb%d0%b5%d0%bd%d0%b8%d1%8f+%d1%81+%d0%b4%d0%bd%d0%b5%d0%bc+%d1%80%d0%be%d0%b6%d0%b4%d0%b5%d0%bd%d0%b8%d1%8f 1
%d0%be%d0%bf%d1%82%d0%be%d0%b2%d0%ba%d0%b0+%d0%b2%d0%be%d0%bb%d0%b6%d1%81%d0%ba%d0%b8%d0%b9+%d0%bf%d0%b0%d0%b2%d0%b8%d0%bb%d1%8c%d0%be%d0%bd+%d0%b2%d1%81%d0%b5+%d0%b4%d0%bb%d1%8f+%d0%bf%d1%80%d0%b0%d0%b7%d0%b4%d0%bd%d0%b8%d0%ba%d0%b0 1
%d0%b4%d0%b5%d1%82%d1%81%d0%ba%d0%b0%d1%8f+%d0%bb%d0%be%d1%82%d0%b5%d1%80%d0%b5%d1%8f+%d0%bd%d0%b0+%d0%b4%d0%b5%d0%bd%d1%8c+%d1%80%d0%be%d0%b6%d0%b4%d0%b5%d0%bd%d0%b8%d1%8f 1
%d0%b4%d0%b5%d1%82%d1%81%d0%ba%d0%b8%d0%b9+%d0%b4%d0%b5%d0%bd%d1%8c+%d1%80%d0%be%d0%b6%d0%b4%d0%b5%d0%bd%d0%b8%d1%8f+%d0%b2+%d0%b2%d0%be%d0%bb%d0%b6%d1%81%d0%ba%d0%be%d0%bc 1
%d1%81%d1%86%d0%b5%d0%bd%d0%b0%d1%80%d0%b8%d0%b9+%d0%b4%d0%bd%d1%8f+%d1%80%d0%be%d0%b6%d0%b4%d0%b5%d0%bd%d0%b8%d1%8f+%d0%bc%d0%b0%d0%bb%d1%8c%d1%87%d0%b8%d0%ba%d1%83+9+%d0%bb%d0%b5%d1%82+%d0%bf%d1%80%d0%b8%d0%ba%d0%be%d0%bb%d1%8c%d0%bd%d1%8b%d0%b5 1
%d1%81+%d0%b4%d0%bd%d0%b5%d0%bc+%d1%80%d0%be%d0%b4%d0%b6%d0%b5%d0%bd%d0%b8%d1%8f+%d0%b4%d0%be%d1%87%d0%ba%d1%83+9+%d0%bb%d0%b5%d1%82 1
%d0%ba%d0%b0%d0%ba+%d0%bf%d1%80%d0%be%d0%b2%d0%b5%d1%81%d1%82%d0%b8+%d0%b4%d0%b5%d0%bd%d1%8c+%d1%80%d0%be%d0%b6%d0%b4%d0%b5%d0%bd%d0%b8%d1%8f+%d1%81+%d0%ba%d0%bb%d0%be%d1%83%d0%bd%d1%8b%d0%bc+%d1%80%d0%b5%d0%b1%d0%b5%d0%bd%d0%ba%d1%83+4+%d0%b3%d0%be%d0%b4%d0%b0 1
%d0%b4%d0%b5%d1%82%d1%81%d0%ba%d0%b8%d0%b5+%d0%ba%d0%be%d0%bc%d0%bd%d0%b0%d1%82%d1%8b+%d0%b2+%d0%b2%d0%be%d0%bb%d0%b6%d1%81%d0%ba%d0%be%d0%bc 2
%d0%b4%d0%b5%d1%82%d1%81%d0%ba%d0%b8%d0%b5+%d0%bf%d0%b5%d1%81%d0%bd%d0%b8+%d0%bd%d0%b0+%d0%b4%d0%b5%d0%bd%d1%8c+%d1%80%d0%be%d0%b6%d0%b4%d0%b5%d0%bd%d0%b8%d1%8f 1
%d0%ba%d0%be%d0%bd%d0%ba%d1%83%d1%80%d1%81%d1%8b+%d0%bd%d0%b0+%d0%b4%d0%b5%d0%bd%d1%8c+%d1%80%d0%be%d0%b6%d0%b4%d0%b5%d0%bd%d0%b8%d1%8f+%d0%b4%d0%bb%d1%8f+%d0%b4%d0%b5%d1%82%d0%b5%d0%b9 2
%d0%b8%d0%bd%d1%82%d0%b5%d1%80%d0%b5%d1%81%d0%bd%d1%8b%d0%b5+%d0%ba%d0%be%d0%bd%d0%ba%d1%83%d1%80%d1%81%d1%8b+%d0%bd%d0%b0+%d0%b4%d0%b5%d0%bd%d1%8c+%d1%80%d0%be%d0%b6%d0%b4%d0%b5%d0%bd%d0%b8%d1%8f+%d0%b4%d0%bb%d1%8f+%d0%b4%d0%b5%d1%82%d0%b5%d0%b9+3+%d0%bb%d0%b5%d1%82 1
%d0%ba%d0%b0%d0%ba+%d1%83%d0%ba%d1%80%d0%b0%d1%81%d0%b8%d1%82%d1%8c+%d0%ba%d0%b0%d1%84%d0%b5+%d0%ba%d0%be+%d0%b4%d0%bd%d1%8e+%d1%80%d0%be%d0%b6%d0%b4%d0%b5%d0%bd%d0%b8%d1%8e 1
%d1%81+%d0%b4%d0%bd%d1%91%d0%bc+%d1%80%d0%be%d0%b6%d0%b4%d0%b5%d0%bd%d0%b8%d1%8f+%d0%b4%d0%b5%d0%b2%d0%be%d1%87%d0%ba%d0%b5+6+%d0%bb%d0%b5%d1%82+%d1%81%d1%82%d0%b8%d1%85%d0%b8 1
%d0%bf%d0%be%d0%b7%d0%b4%d1%80%d0%b0%d0%b2%d0%bb%d0%b5%d0%bd%d0%b8%d0%b5+%d0%b2+%d1%81%d1%86%d0%b5%d0%bd%d0%ba%d0%b5+%d1%81+%d0%b4%d0%bd%d0%b5%d0%bc+%d1%80%d0%be%d0%b6%d0%b4%d0%b5%d0%bd%d0%b8%d1%8f 1
%d0%b4%d0%b5%d1%82%d1%81%d0%ba%d0%b8%d0%b9+%d1%84%d1%83%d1%80%d1%88%d0%b5%d1%82%d0%bd%d1%8b%d0%b9+%d1%81%d1%82%d0%be%d0%bb+%d0%bd%d0%b0+%d0%b4%d0%b5%d0%bd%d1%8c+%d1%80%d0%be%d0%b6%d0%b4%d0%b5%d0%bd%d0%b8%d1%8f+%d1%80%d0%b5%d1%86%d0%b5%d0%bf%d1%82%d1%8b+%d1%81+%d1%84%d0%be%d1%82%d0%be 1
%d0%ba%d0%b0%d0%ba+%d0%b2%d0%b5%d1%81%d0%b5%d0%bb%d0%be+%d0%bf%d1%80%d0%be%d0%b2%d0%b5%d1%81%d1%82%d0%b8+%d0%b4%d0%b5%d0%bd%d1%8c+%d1%80%d0%be%d0%b6%d0%b4%d0%b5%d0%bd%d0%b8%d1%8f 1
%d0%b2%d0%be%d0%bb%d0%b3%d0%be%d0%b3%d1%80%d0%b0%d0%b4+%d0%b4%d0%b5%d0%bd%d1%8c+%d0%b3%d0%be%d1%80%d0%be%d0%b4%d0%b0+2015+%d0%bf%d1%80%d0%be%d0%b3%d1%80%d0%b0%d0%bc%d0%bc%d0%b0+%d0%bc%d0%b5%d1%80%d0%be%d0%bf%d1%80%d0%b8%d1%8f%d1%82%d0%b8%d0%b9 1
%d0%be%d1%80%d0%b3%d0%b0%d0%bd%d0%b8%d0%b7%d0%b0%d1%86%d0%b8%d0%b8+%d0%bf%d1%80%d0%b0%d0%b7%d0%b4%d0%bd%d0%b8%d0%ba%d0%be%d0%b2+%d0%b2%d0%be%d0%bb%d0%b6%d1%81%d0%ba%d0%b8%d0%b9 1
%d0%b0%d0%bd%d0%b8%d0%bc%d0%b0%d1%82%d0%be%d1%80%d1%8b+%d0%bd%d0%b0+%d0%b4%d0%b5%d1%82%d1%81%d0%ba%d0%b8%d0%b9+%d0%b4%d0%b5%d0%bd%d1%8c+%d1%80%d0%be%d0%b6%d0%b4%d0%b5%d0%bd%d0%b8%d1%8f+%d0%b2%d0%be%d0%bb%d0%b3%d0%be%d0%b3%d1%80%d0%b0%d0%b4 1
%d1%81+%d0%b4%d0%bd%d1%91%d0%bc+%d1%80%d0%be%d0%b6%d0%b4%d0%b5%d0%bd%d0%b8%d1%8f+3+%d0%b3%d0%be%d0%b4%d0%b0+%d0%b4%d0%b5%d0%b2%d0%be%d1%87%d0%ba%d0%b5 1
%d0%b4%d0%b5%d1%82%d1%81%d0%ba%d0%b8%d0%b9+%d0%b1%d0%b0%d1%82%d1%83%d1%82+%d0%bd%d0%b0%d0%b4%d1%83%d0%b2%d0%bd%d0%be%d0%b9+%d0%b4%d0%bb%d1%8f+%d0%b4%d0%be%d0%bc%d0%b0 1
%d0%b4%d0%b5%d1%82%d1%81%d0%ba%d0%b8%d0%b9+%d1%82%d0%be%d1%80%d1%82+%d0%bd%d0%b0+%d0%b4%d0%b5%d0%bd%d1%8c+%d1%80%d0%be%d0%b6%d0%b4%d0%b5%d0%bd%d0%b8%d1%8f+%d0%b4%d0%bb%d1%8f+%d0%b4%d0%b5%d0%b2%d0%be%d1%87%d0%ba%d0%b8 1
%d1%81%d0%be%d0%b1%d1%8b%d1%82%d0%b8%d1%8f+%d0%b8+%d0%bf%d1%80%d0%b5%d0%bc%d1%8c%d0%b5%d1%80%d1%8b+%d0%b2+%d0%b2%d0%be%d0%bb%d0%b6%d1%81%d0%ba%d0%be%d0%bc+%d0%be%d0%ba%d1%82%d1%8f%d0%b1%d1%80%d1%8c+%d0%bd%d0%be%d1%8f%d0%b1%d1%80%d1%8c+2015 1
%d1%81%d0%be%d0%b1%d1%8b%d1%82%d0%b8%d1%8f+%d0%b2+%d0%b2%d0%be%d0%bb%d0%b3%d0%be%d0%b3%d1%80%d0%b0%d0%b4%d0%b5 1
%d0%bf%d0%be%d0%b7%d0%b4%d1%80%d0%b0%d0%b2%d0%bb%d0%b5%d0%bd%d0%b8%d1%8f+%d0%ba%d0%be+%d0%b4%d0%bd%d1%8e+%d1%80%d0%be%d0%b6%d0%b4%d0%b5%d0%bd%d0%b8%d1%8f 1
%d0%b3%d0%b4%d0%b5+%d0%bf%d1%80%d0%be%d0%b2%d0%b5%d1%81%d1%82%d0%b8+%d0%b4%d0%b5%d1%82%d1%81%d0%ba%d0%b8%d0%b9+%d0%b4%d0%b5%d0%bd%d1%8c+%d1%80%d0%be%d0%b6%d0%b4%d0%b5%d0%bd%d0%b8%d1%8f+%d0%b2+%d0%b2%d0%be%d0%bb%d0%b6%d1%81%d0%ba%d0%be%d0%bc 1
%d0%b2%d1%81%d1%91+%d0%b4%d0%bb%d1%8f+%d0%bf%d1%80%d0%b0%d0%b7%d0%b4%d0%bd%d0%b8%d0%ba%d0%b0+%d0%b2%d0%be%d0%bb%d0%b6%d1%81%d0%ba%d0%b8%d0%b9 1
%d0%b3%d0%b4%d0%b5+%d0%bc%d0%be%d0%b6%d0%bd%d0%be+%d0%be%d1%82%d0%bc%d0%b5%d1%82%d0%b8%d1%82%d1%8c+%d0%b4%d0%b5%d0%bd%d1%8c+%d1%80%d0%be%d0%b6%d0%b4%d0%b5%d0%bd%d0%b8%d1%8f+%d0%be%d1%81%d0%b5%d0%bd%d1%8c%d1%8e 1
%d0%bd%d0%be%d0%b2%d0%be%d0%b3%d0%be%d0%b4%d0%bd%d0%b8%d0%b5+%d0%bf%d1%80%d0%b0%d0%b7%d0%b4%d0%bd%d0%b8%d0%ba%d0%b8+2016 1
%d0%bf%d0%be%d0%b7%d0%b4%d1%80%d0%be%d0%b2%d0%bb%d0%b5%d0%bd%d1%96%d1%8f+%d1%81+%d0%b4%d0%bd%d0%b5%d0%bc+%d1%80%d0%be%d0%b6%d0%b4%d0%b5%d0%bd%d0%b8%d1%8f 1
%d0%bf%d0%be%d0%b6%d0%b5%d0%bb%d0%b0%d0%bd%d0%b8%d0%b5+%d0%b4%d0%b5%d0%b2%d0%be%d1%87%d0%ba%d0%b5+%d0%bd%d0%b0+%d0%b4%d0%b5%d0%bd%d1%8c+%d1%80%d0%be%d0%b6%d0%b4%d0%b5%d0%bd%d0%b8%d1%8f 1
%d0%ba%d0%b0%d0%ba%d0%b8%d0%b5+%d0%bc%d0%b5%d1%80%d0%be%d0%bf%d1%80%d0%b8%d1%8f%d1%82%d0%b8%d1%8f+%d0%b1%d1%83%d0%b4%d1%83%d1%82+%d0%bd%d0%b0+%d0%b4%d0%b5%d0%bd%d1%8c+%d0%b3%d0%be%d1%80%d0%be%d0%b4%d0%b0+%d0%b2%d0%be%d0%bb%d0%b3%d0%be%d0%b3%d1%80%d0%b0%d0%b4+2015 1
gjplhfdktybz+c+lytv+hj%3bltybz+3+ujlf 1
%d0%b2%d0%b8%d0%ba%d1%82%d0%be%d1%80%d0%b8%d0%bd%d0%b0+%d0%bd%d0%b0+%d0%b4%d0%b5%d1%82%d1%81%d0%ba%d0%b8%d0%b9+%d0%b4%d0%b5%d0%bd%d1%8c+%d1%80%d0%be%d0%b6%d0%b4%d0%b5%d0%bd%d0%b8%d1%8f 1
%d0%b4%d0%b5%d0%bd%d1%8c+%d0%b3%d0%be%d1%80%d0%be%d0%b4%d0%b0+%d0%b2+%d0%b2%d0%be%d0%bb%d0%b3%d0%be%d0%b3%d1%80%d0%b0%d0%b4%d0%b5+%d0%b2+2015+%d0%bc%d0%b5%d1%80%d0%be%d0%bf%d1%80%d0%b8%d1%8f%d1%82%d0%b8%d1%8f 1
%d0%ba%d1%80%d0%b0%d1%81%d0%b8%d0%b2%d1%8b%d0%b5+%d0%bf%d0%be%d0%b7%d0%b4%d1%80%d0%b0%d0%b2%d0%bb%d0%b5%d0%bd%d0%b8%d1%8f+%d1%81+%d0%b4%d0%bd%d0%b5%d0%bc+%d1%80%d0%be%d0%b6%d0%b4%d0%b5%d0%bd%d0%b8%d1%8f 1
%d0%bf%d0%be%d0%b7%d0%b4%d1%80%d0%b0%d0%b2%d0%bb%d0%b5%d0%bd%d0%b8%d0%b5+%d0%b4%d0%b5%d0%b2%d0%be%d1%87%d0%ba%d0%b8+%d1%81+%d0%b4%d0%bd%d0%b5%d0%bc+%d1%80%d0%be%d0%b6%d0%b4%d0%b5%d0%bd%d0%b8%d1%8f 1
%d0%b5%d1%81%d0%b5%d0%bd%d0%b8%d0%bd+120+%d0%bb%d0%b5%d1%82+%d1%81%d0%be+%d0%b4%d0%bd%d1%8f+%d1%80%d0%be%d0%b6%d0%b4%d0%b5%d0%bd%d0%b8%d1%8f 1
%d0%ba%d0%be%d0%bd%d0%ba%d1%83%d1%80%d1%81%d1%8b+%d0%bd%d0%b0+%d0%b4%d0%b5%d1%82%d1%81%d0%ba%d0%b8%d0%b9+%d0%b4%d0%b5%d0%bd%d1%8c+%d1%80%d0%be%d0%b6%d0%b4%d0%b5%d0%bd%d0%b8%d1%8f+10+%d0%bb%d0%b5%d1%82+%d0%b4%d0%be%d0%bc%d0%b0 2
%d0%bf%d1%80%d0%be%d0%b2%d0%b5%d0%b4%d0%b5%d0%bd%d0%b8%d0%b5+%d0%b4%d0%b5%d1%82%d1%81%d0%ba%d0%be%d0%b3%d0%be+%d0%b4%d0%b5%d0%bd%d1%8c+%d1%80%d0%be%d0%b6%d0%b4%d0%b5%d0%bd%d0%b8%d1%8f+%d0%b2%d0%be%d0%bb%d0%b6%d1%81%d0%ba%d0%b8%d0%b9 1
%d0%be%d1%80%d0%b3%d0%b0%d0%bd%d0%b8%d0%b7%d0%b0%d1%86%d0%b8%d1%8f+%d0%bf%d1%80%d0%b0%d0%b7%d0%b4%d0%bd%d0%b8%d0%ba%d0%be%d0%b2+%d0%b2%d0%be%d0%bb%d0%b6%d1%81%d0%ba%d0%b8%d0%b9 1
%d0%b2%d1%81%d0%b5+%d0%b4%d0%b5%d1%82%d1%81%d0%ba%d0%b8%d0%b5+%d0%bf%d0%b5%d1%81%d0%b5%d0%bd%d0%ba%d0%b8+%d1%81+%d0%b4%d0%bd%d0%b5%d0%bc+%d1%80%d0%be%d0%b6%d0%b4%d0%b5%d0%bd%d0%b8%d1%8f 2
%d0%b0%d0%bd%d0%b8%d0%bc%d0%b0%d1%82%d0%be%d1%80%d1%8b+%d0%b2%d0%be%d0%bb%d0%b6%d1%81%d0%ba%d0%b8%d0%b9+%d0%be%d1%82%d0%b7%d1%8b%d0%b2%d1%8b 2
%d0%b4%d0%b5%d1%82%d1%81%d0%ba%d0%b8%d0%b5+%d0%ba%d0%be%d0%bc%d0%bd%d0%b0%d1%82%d1%8b+%d0%b4%d0%bb%d1%8f+%d0%b4%d0%b5%d0%b2%d0%be%d1%87%d0%ba%d0%b8+%d0%b8+%d0%bc%d0%b0%d0%bb%d1%8c%d1%87%d0%b8%d0%ba%d0%b0 1
%d0%ba%d0%b0%d0%ba%d0%b8%d0%b5+%d0%bc%d0%b5%d1%80%d0%be%d0%bf%d1%80%d0%b8%d1%8f%d1%82%d0%b8%d1%8f+%d0%b1%d1%83%d0%b4%d1%83%d1%82+%d0%bd%d0%b0+%d0%b4%d0%b5%d0%bd%d1%8c+%d0%b3%d0%be%d1%80%d0%be%d0%b4%d0%b0+%d0%b2+%d0%b2%d0%be%d0%bb%d0%b3%d0%be%d0%b3%d1%80%d0%b0%d0%b4%d0%b5+2015 1
%d0%b3%d0%b4%d0%b5+%d0%be%d1%82%d0%bc%d0%b5%d1%82%d0%b8%d1%82%d1%8c+%d0%b4%d0%b5%d0%bd%d1%8c+%d1%80%d0%be%d0%b6%d0%b4%d0%b5%d0%bd%d0%b8%d1%8f+%d1%80%d0%b5%d0%b1%d0%b5%d0%bd%d0%ba%d1%83+%d0%b2+%d0%b2%d0%be%d0%bb%d0%b6%d1%81%d0%ba%d0%be%d0%bc 1
%d0%b2%d1%8b%d1%85%d0%be%d0%b4%d0%bd%d1%8b%d0%b5+10-11+%d0%be%d0%ba%d1%82%d1%8f%d0%b1%d1%80%d1%8f+2015+%d0%b3%d0%be%d0%b4%d0%b0+%d0%b2+%d0%b2%d0%be%d0%bb%d0%b3%d0%be%d0%b3%d1%80%d0%b0%d0%b4%d0%b5 1
%d0%b4%d0%b5%d0%bd%d1%8c+%d0%b3%d0%be%d1%80%d0%be%d0%b4%d0%b0+%d0%b2%d0%be%d0%bb%d0%b3%d0%be%d0%b3%d1%80%d0%b0%d0%b4+2015+%d0%bf%d1%80%d0%be%d0%b3%d1%80%d0%b0%d0%bc%d0%bc%d0%b0+%d0%bc%d0%b5%d1%80%d0%be%d0%bf%d1%80%d0%b8%d1%8f%d1%82%d0%b8%d0%b9 1
%d1%81+%d0%b4%d0%bd%d1%91%d0%bc+%d1%80%d0%be%d0%b6%d0%b4%d0%b5%d0%bd%d0%b8%d1%8f+%d0%b4%d0%b5%d0%b2%d0%be%d1%87%d0%ba%d0%b5+6+%d0%bb%d0%b5%d1%82+%d0%ba%d1%80%d0%b0%d1%81%d0%b8%d0%b2%d1%8b%d0%b5+%d0%bf%d0%be%d0%b7%d0%b4%d1%80%d0%b0%d0%b2%d0%bb%d0%b5%d0%bd%d0%b8%d1%8f 1
%d1%81%d0%bc%d0%b5%d1%88%d0%bd%d1%8b%d0%b5+%d0%ba%d0%b0%d1%80%d1%82%d0%b8%d0%bd%d0%ba%d0%b8+%d0%ba%d1%83%d1%80%d0%b1%d0%b0%d0%bd+%d0%b1%d0%b0%d0%b9%d1%80%d0%b0%d0%bc 1
%d0%b3%d0%be%d1%80%d0%be%d0%b4+%d0%bc%d0%b0%d1%81%d1%82%d0%b5%d1%80%d0%be%d0%b2+%d0%be%d1%84%d0%b8%d1%86%d0%b8%d0%b0%d0%bb%d1%8c%d0%bd%d1%8b%d0%b9+%d1%81%d0%b0%d0%b9%d1%82 1
%d0%b4%d0%b5%d0%bd%d1%8c+%d1%80%d0%be%d0%b6%d0%b4%d0%b5%d0%bd%d0%b8%d1%8f+%d0%b2+%d0%b2%d0%be%d0%bb%d0%b6%d1%81%d0%ba%d0%be%d0%bc 2
%d0%b4%d0%b5%d1%82%d1%81%d0%ba%d0%b8%d0%b5+%d0%ba%d0%be%d0%bc%d0%bd%d0%b0%d1%82%d1%8b+%d1%82%d1%80%d0%b0%d0%bd%d1%81%d1%84%d0%be%d1%80%d0%bc%d0%b5%d1%80%d1%8b 1
%d0%b3%d0%b4%d0%b5+%d0%be%d1%82%d0%bf%d1%80%d0%b0%d0%b7%d0%b4%d0%bd%d0%be%d0%b2%d0%b0%d1%82%d1%8c+%d0%b4%d0%b5%d0%bd%d1%8c+%d1%80%d0%be%d0%b6%d0%b4%d0%b5%d0%bd%d0%b8%d1%8f+%d1%80%d0%b5%d0%b1%d0%b5%d0%bd%d0%ba%d1%83+%d0%b2%d0%be%d0%bb%d0%b6%d1%81%d0%ba%d0%b8%d0%b9 2
%d0%b4%d0%b5%d1%82%d1%81%d0%ba%d0%b8%d0%b5+%d0%bf%d0%b5%d1%81%d0%b5%d0%bd%d0%ba%d0%b8+%d1%81+%d0%b4%d0%bd%d0%b5%d0%bc+%d1%80%d0%be%d0%b6%d0%b4%d0%b5%d0%bd%d0%b8%d1%8f 1
%d0%bc%d0%b5%d1%80%d0%be%d0%bf%d1%80%d0%b8%d1%8f%d1%82%d0%b8%d1%8f+%d0%bd%d0%b0+%d0%b4%d0%b5%d0%bd%d1%8c+%d0%b3%d0%be%d1%80%d0%be%d0%b4%d0%b0+%d0%b2+%d0%b2%d0%be%d0%bb%d0%b3%d0%be%d0%b3%d1%80%d0%b0%d0%b4%d0%b5+2015 2
%d0%ba%d0%b8%d0%bd%d0%b4%d0%b5%d1%80+%d1%81%d0%b8%d1%82%d0%b8+%d0%b3%d0%be%d1%80%d0%be%d0%b4+%d0%bf%d1%80%d0%be%d1%84%d0%b5%d1%81%d1%81%d0%b8%d0%b9+%d0%b2%d0%be%d0%bb%d0%b3%d0%be%d0%b3%d1%80%d0%b0%d0%b4 1
%d0%b4%d0%b5%d1%82%d1%81%d0%ba%d0%b8%d0%b9+%d0%bf%d1%80%d0%b0%d0%b7%d0%b4%d0%bd%d0%b8%d0%ba+%d0%b2%d0%be%d0%b4%d0%be%d0%bd%d0%be%d1%81%d0%ba%d0%b8 1
%d0%bf%d0%be%d0%b7%d0%b4%d1%80%d0%b0%d0%b2%d0%bb%d0%b5%d0%bd%d0%b8%d1%8f+%d1%81+%d0%b4%d0%bd%d0%b5%d0%bc+%d1%80%d0%be%d0%b6%d0%b4%d0%b5%d0%bd%d0%b8%d1%8f+%d0%b2%d0%b5%d1%81%d0%b5%d0%bb%d1%8b%d0%b5 1
%d0%90%d0%9d%d0%98%d0%9c%d0%90%d0%a2%d0%9e%d0%a0%d0%ab+%d0%94%d0%95%d0%a2%d0%a1%d0%9a%d0%98%d0%95+%d0%9f%d0%a0%d0%90%d0%97%d0%94%d0%9d%d0%98%d0%9a%d0%98+%d0%92%d0%9e%d0%9b%d0%b6%d0%a1%d0%9a%d0%98%d0%99 1
%d0%b4%d0%b5%d0%bd%d1%8c+%d0%b3%d0%be%d1%80%d0%be%d0%b4%d0%b0+%d0%b2+%d0%b0%d1%81%d1%82%d1%80%d0%b0%d1%85%d0%b0%d0%bd%d0%b8+2015+%d0%bf%d1%80%d0%be%d0%b3%d1%80%d0%b0%d0%bc%d0%bc%d0%b0+%d0%bc%d0%b5%d1%80%d0%be%d0%bf%d1%80%d0%b8%d1%8f%d1%82%d0%b8%d0%b9 1
%d0%bc%d0%b0%d1%81%d1%82%d0%b5%d1%80%d0%b0+%d0%bf%d0%be+%d0%bf%d0%bb%d0%b5%d1%82%d0%b5%d0%bd%d0%b8%d1%8e+%d0%b8%d0%b7+%d0%bb%d0%be%d0%b7%d1%8b+%d0%b2+%d0%b3%d0%be%d1%80%d0%be%d0%b4%d0%b5+%d0%92%d0%be%d0%bb%d0%b6%d1%81%d0%ba%d0%be%d0%bc+%d0%92%d0%be%d0%bb%d0%b3%d0%be%d0%b3%d1%80%d0%b0%d0%b4%d0%b5 1
%d1%80%d0%be%d0%b6%d0%b4%d0%b5%d0%bd%d0%b8%d1%8f+%d0%b4%d0%b5%d0%b2%d0%be%d1%87%d0%ba%d0%b0+7+%d0%bd%d0%be%d1%8f%d0%b1%d1%80%d1%8f+%d0%b8%d0%bc%d0%b5%d0%bd%d0%b8%d0%bd%d1%8b 1
%d0%bf%d0%be%d0%b4%d0%b0%d1%80%d0%ba%d0%b8+%d0%bd%d0%b0+%d0%b2%d1%8b%d0%bf%d1%83%d1%81%d0%ba%d0%bd%d0%be%d0%b9+%d0%b2+%d0%b4%d0%b5%d1%82%d1%81%d0%ba%d0%b8%d0%b9+%d1%81%d0%b0%d0%b4+%d0%b4%d0%bb%d1%8f+%d0%b4%d0%b5%d1%82%d0%b5%d0%b9 1
%d1%81%d1%82%d0%b8%d1%85+%d0%b4%d0%b5%d1%82%d1%81%d0%ba%d0%b8%d0%b9+%d1%81+%d0%b4%d0%bd%d0%b5%d0%bc+%d1%80%d0%be%d0%b6%d0%b4%d0%b5%d0%bd%d0%b8%d1%8f+%d0%b4%d0%b5%d0%b2%d0%be%d1%87%d0%ba%d0%b5+%d0%b2%d0%b5%d1%80%d0%b5 1
%d0%b4%d0%b5%d0%bd%d1%8c+%d1%80%d0%be%d0%b6%d0%b4%d0%b5%d0%bd%d0%b8%d1%8f+%d0%bc%d0%b0%d0%bb%d1%8c%d1%87%d0%b8%d0%ba%d0%b0+12+%d0%bb%d0%b5%d1%82+%d0%bc%d0%b5%d0%bd%d1%8e 1
rhfcbdst+%d0%bf%d0%be%d0%b7%d0%b4%d1%80%d0%b0%d0%b2%d0%bb%d0%b5%d0%bd%d0%b8%d1%8f+%d1%81+%d0%b4%d0%bd%d0%b5%d0%bc+%d1%80%d0%be%d0%b6%d0%b4%d0%b5%d0%bd%d0%b8%d1%8f 1
%d0%b4%d0%b5%d1%82%d1%81%d0%ba%d0%b8%d0%b9+%d1%86%d0%b5%d0%bd%d1%82%d1%80+%d0%bc%d0%b0%d0%b4%d0%b0%d0%b3%d0%b0%d1%81%d0%ba%d0%b0%d1%80+%d0%b2%d0%be%d0%bb%d0%b6%d1%81%d0%ba%d0%b8%d0%b9 1
%d0%be%d1%80%d0%b3%d0%b0%d0%bd%d0%b8%d0%b7%d0%be%d0%b2%d0%b0%d1%82%d1%8c+%d0%b2%d0%b5%d1%87%d0%b5%d1%80%d0%b8%d0%bd%d0%ba%d1%83 1
%d0%bf%d0%be%d0%b7%d0%b4%d1%80%d0%b0%d0%b2%d0%bb%d0%b5%d0%bd%d0%b8%d1%8f+%d1%81+%d0%b4%d0%bd%d1%91%d0%bc+%d1%80%d0%be%d0%b6%d0%b4%d0%b5%d0%bd%d0%b8%d1%8f+%d0%b4%d0%b5%d0%b2%d0%be%d1%87%d0%ba%d0%b5+%d0%b2+%d1%81%d1%82%d0%b8%d1%85%d0%b0%d1%85+%d0%ba%d1%80%d0%b0%d1%81%d0%b8%d0%b2%d1%8b%d0%b5 1
%d0%bf%d0%b5%d1%81%d0%bd%d0%b8+%d0%bf%d1%80%d0%be+%d0%b4%d0%b5%d0%bd%d1%8c+%d1%80%d0%be%d0%b6%d0%b4%d0%b5%d0%bd%d0%b8%d1%8f+%d0%b4%d0%b5%d1%82%d1%81%d0%ba%d0%b8%d0%b5+%d1%81%d0%bb%d1%83%d1%88%d0%b0%d1%82%d1%8c+%d0%bc%d0%b0%d1%88%d0%b0+%d0%b8+%d0%bc%d0%b5%d0%b4%d0%b2%d0%b5%d0%b4%d1%8c 1
%d0%92+%d0%ba%d0%b0%d0%ba%d0%be%d0%bc+%d1%81%d1%82%d0%b8%d0%bb%d0%b5+%d0%bc%d0%be%d0%b6%d0%bd%d0%be+%d1%81%d0%b4%d0%b5%d0%bb%d0%b0%d1%82%d1%8c+%d0%b4%d0%b5%d0%bd%d1%8c+%d1%80%d0%be%d0%b6%d0%b4%d0%b5%d0%bd%d0%b8%d1%8f 1
%d0%ba%d0%be%d0%bd%d0%ba%d1%83%d1%80%d1%81%d1%8b+%d0%bd%d0%b0+%d0%b4%d0%b5%d0%bd%d1%8c+%d1%80%d0%be%d0%b6%d0%b4%d0%b5%d0%bd%d0%b8%d1%8f+10+%d0%bb%d0%b5%d1%82+%d0%b4%d0%b5%d1%82%d0%b8 1
%d1%82%d0%be%d1%80%d1%82%d1%8b+%d0%b4%d0%bb%d1%8f+%d0%b4%d0%b5%d0%b2%d0%be%d1%87%d0%b5%d0%ba+%d0%bd%d0%b0+%d0%b4%d0%b5%d0%bd%d1%8c+%d1%80%d0%be%d0%b6%d0%b4%d0%b5%d0%bd%d0%b8%d1%8f 1
%d1%81%d1%86%d0%b5%d0%bd%d0%b0%d1%80%d0%b8%d0%b9+%d0%b4%d0%bd%d1%8f+%d1%80%d0%be%d0%b6%d0%b4%d0%b5%d0%bd%d0%b8%d1%8f+%d0%b4%d0%bb%d1%8f+%d0%b4%d0%b5%d0%b2%d0%be%d1%87%d0%ba%d0%b8+10+%d0%bb%d0%b5%d1%82+%d0%b4%d0%be%d0%bc%d0%b0+%d1%81%d0%bc%d0%b5%d1%88%d0%bd%d0%be%d0%b9 1
END_SEARCHWORDS

# Search keywords - Number of search
# The 10 first number of search must be first (order not required for others)
BEGIN_KEYWORDS 277
%d1%80%d0%be%d0%b6%d0%b4%d0%b5%d0%bd%d0%b8%d1%8f 150
%d0%b4%d0%b5%d0%bd%d1%8c 108
%d1%81 70
%d0%b4%d0%bd%d0%b5%d0%bc 53
%d0%b2 52
%d0%bd%d0%b0 51
2015 36
%d0%bf%d0%be%d0%b7%d0%b4%d1%80%d0%b0%d0%b2%d0%bb%d0%b5%d0%bd%d0%b8%d1%8f 34
%d0%b4%d0%bb%d1%8f 29
%d0%b3%d0%be%d1%80%d0%be%d0%b4%d0%b0 29
%d0%b1%d0%b5%d0%b7 1
%d0%b4%d0%bd%d1%8f 9
%d0%b2%d0%b8%d0%ba%d1%82%d0%be%d1%80%d0%b8%d0%bd%d0%b0 1
%d1%88%d0%ba%d0%be%d0%bb%d1%8c%d0%bd%d1%8b%d0%b5 1
%d0%bf%d0%b5%d1%80%d0%b2%d1%8b%d0%b9 2
%d1%82%d0%be%d1%80%d1%82%d0%be%d0%b2 1
%d0%bc%d0%b0%d0%bb%d1%8c%d1%87%d0%b8%d0%ba%d0%b0 3
%d0%b4%d0%bd%d1%91%d0%bc 10
%d0%bf%d1%80%d0%b0%d0%b7%d0%b4%d0%bd%d0%b8%d0%ba%d0%b5 1
%d0%92%d0%be%d0%bb%d0%b3%d0%be%d0%b3%d1%80%d0%b0%d0%b4%d0%b5 1
%d1%81%d0%bc%d0%b5%d1%88%d0%bd%d0%be%d0%b9 1
%d0%b2%d0%be%d0%bb%d0%b3%d0%be%d0%b3%d1%80%d0%b0%d0%b4%d0%b0 18
%d0%bf%d1%80%d0%be 3
%d0%ba%d1%80%d0%b0%d1%81%d0%b8%d0%b2%d1%8b%d0%b5 4
%d0%b4%d0%b5%d1%82%d1%81%d0%ba%d0%b8%d1%85 1
%d0%b3%d0%be%d0%b4%d0%b8%d0%ba%d0%b0 1
%d0%ba%d0%b8%d0%bd%d0%b4%d0%b5%d1%80%d0%bc%d0%be%d0%bb%d0%bb 1
%d0%be%d1%81%d0%b5%d0%bd%d1%8c%d1%8e 1
11 1
%d0%ba%d0%b2%d0%b5%d1%81%d1%82 1
%d0%b8%d0%bd%d1%82%d0%b5%d1%80%d0%b5%d1%81%d0%bd%d1%8b%d0%b5 1
%d1%81%d1%82%d0%b8%d1%85 2
%d0%be%d1%80%d0%b3%d0%b0%d0%bd%d0%b8%d0%b7%d0%be%d0%b2%d0%b0%d1%82%d1%8c 1
%d0%9f%d0%a0%d0%90%d0%97%d0%94%d0%9d%d0%98%d0%9a%d0%98 1
%d0%b4%d0%be%d0%bc%d0%b0 4
15 2
%d0%bf%d1%83%d0%b7%d1%8b%d1%80%d1%8f%d0%bc%d0%b8 2
%d0%b8%d0%b7 1
09 1
%d0%bf%d0%be%d0%b7%d0%b4%d1%80%d0%b0%d0%b2%d0%bb%d0%b5%d0%bd%d0%b8%d0%b5 14
%d0%bf%d1%80%d0%b5%d0%bf%d0%be%d0%b4%d0%bd%d0%b5%d1%81%d1%82%d0%b8 1
%d1%81%d0%b5%d0%b9%d1%87%d0%b0%d1%81 1
%d0%b7%d0%b0%d0%ba%d0%b0%d0%b7%d0%b0%d1%82%d1%8c 1
%d0%bd%d0%be%d0%b2%d0%be%d0%b3%d0%be%d0%b4%d0%bd%d0%b8%d0%b5 5
lytv 1
%d0%b4%d0%b5%d1%82%d0%b5%d0%b9 5
%d0%92 1
%d0%b8 6
%d0%b0%d0%bf%d1%80%d0%b5%d0%bb%d0%b5 1
%d0%bc%d0%be%d0%b6%d0%bd%d0%be 7
rhfcbdst 1
%d0%b4%d0%b5%d1%82%d1%81%d0%ba%d0%be%d0%b3%d0%be 4
%d1%83%d0%ba%d1%80%d0%b0%d1%81%d0%b8%d1%82%d1%8c 2
%d0%b4%d0%b5%d1%82%d1%81%d0%ba%d0%b8%d0%b5 14
%d0%bf%d0%be%d0%b4%d0%b0%d1%80%d0%be%d0%ba 3
%d0%ba%d0%b0%d0%ba%d0%b4%d0%b5%d1%82%d1%8f%d0%bc 1
%d0%bf%d1%80%d0%b0%d0%b7%d0%b4%d0%bd%d0%b8%d0%ba%d0%b0 5
%d0%bf%d0%bb%d0%b0%d0%bd%d0%b8%d1%80%d1%83%d1%8e%d1%82%d1%81%d1%8f 1
%d0%a0%d0%9e%d0%94%d0%96%d0%95%d0%9d%d0%98%d0%af 1
%d0%bf%d1%80%d0%be%d0%b2%d0%b5%d0%b4%d0%b5%d0%bd%d0%b8%d0%b5 2
%d0%94%d0%9d%d0%95%d0%9c 4
%d0%ba%d0%be 2
%d0%bf%d1%80%d0%be%d1%84%d0%b5%d1%81%d1%81%d0%b8%d0%b9 1
%d0%ba%d0%bb%d0%be%d1%83%d0%bd%d1%8b%d0%bc 1
23 2
%d0%bf%d1%80%d0%be%d0%b7%d0%b5 1
%d1%82%d0%be%d1%80%d1%82 2
%d1%81%d1%82%d0%b8%d1%85%d0%b0%d1%85 1
%d1%80%d0%be%d0%b4%d0%b6%d0%b5%d0%bd%d0%b8%d1%8f 1
%d0%be%d1%80%d0%b3%d0%b0%d0%bd%d0%b8%d0%b7%d0%b0%d1%86%d0%b8%d1%8f 3
%d0%b7%d0%b0%d0%b2%d0%b5%d0%b4%d1%83%d1%8e%d1%89%d0%b5%d0%b9 1
%d1%81%d0%be%d0%b1%d1%8b%d1%82%d0%b8%d1%8f 3
%d0%ba%d0%b0%d1%84%d0%b5 5
%d0%ba%d0%b0%d0%ba%d0%be%d0%b9 2
%d0%9f%d0%9e%d0%97%d0%94%d0%a0%d0%90%d0%92%d0%9b%d0%95%d0%9d%d0%98%d0%95 4
%d0%b0%d0%bd%d0%b8%d0%bc%d0%b0%d1%82%d0%be%d1%80%d1%8b 6
%d1%80%d0%b5%d0%b1%d0%b5%d0%bd%d0%ba%d1%83 8
5 2
%d0%b7%d0%b0%d0%ba%d0%b0%d0%b7 1
%d0%b2%d1%8b 1
%d0%a0%d0%9e%d0%96%d0%94%d0%95%d0%9d%d0%98%d0%af 3
%d0%bc%d0%b5%d1%80%d0%be%d0%bf%d1%80%d0%b8%d1%8f%d1%82%d0%b8%d1%8f 9
%d0%bc%d0%b0%d1%81%d1%82%d0%b8%d0%ba%d0%b8 1
%d1%84%d0%b8%d0%ba%d1%81%d0%b8%d0%ba%d0%b8 3
%d0%bf%d1%80%d0%b8%d1%87%d1%91%d1%81%d0%ba%d0%b8 1
%d0%be%d1%82%d0%bc%d0%b5%d1%87%d0%b0%d0%b5%d1%82 1
%d1%80%d0%b5%d1%86%d0%b5%d0%bf%d1%82%d0%b0%d0%bc%d0%b8 3
%d0%bf%d0%b0%d0%b2%d0%b8%d0%bb%d1%8c%d0%be%d0%bd 1
%d0%b4%d0%bd%d1%8e 2
%d0%b2%d0%be%d0%bb%d0%b6%d1%81%d0%ba%d0%be%d0%bc 24
%d0%bf%d1%80%d0%b0%d0%b7%d0%b4%d0%bd%d0%b8%d0%ba%d0%be%d0%b2 4
%d0%9a%d0%9b%d0%9e%d0%a3%d0%9d%d0%9e%d0%9c 3
%d0%b7%d0%b8%d0%bc%d0%be%d0%b9 1
%d0%be%d1%82%d0%bc%d0%b5%d1%82%d0%b8%d1%82%d1%8c 13
%d1%88%d0%be%d1%83 1
%d0%b3%d0%be%d0%b4%d1%83 4
%d1%82%d0%be%d1%80%d1%82%d1%8b 1
%d0%b2%d0%be%d0%b4%d0%be%d0%bd%d0%be%d1%81%d0%ba%d0%b8 1
%d1%81%d1%86%d0%b5%d0%bd%d0%b0%d1%80%d0%b8%d0%b9 4
12 3
%d0%b2%d0%be%d0%bb%d0%b6%d1%81%d0%ba%d0%b8%d0%b9 20
%d1%81%d1%82%d0%b8%d1%85%d0%b8 2
%d1%81%d0%be 2
%d0%bf%d0%be%d0%b4%d0%b5%d0%bb%d0%ba%d0%b8 1
%d0%bf%d1%80%d0%b0%d0%b7%d0%b4%d0%bd%d0%b8%d0%ba 7
%d1%82%d1%80%d0%b0%d0%bd%d1%81%d1%84%d0%be%d1%80%d0%bc%d0%b5%d1%80%d1%8b 1
%d0%b5%d1%81%d1%82%d1%8c 1
1 3
%d1%87%d1%82%d0%be 3
%d0%bf%d1%80%d0%b0%d0%b7%d0%b4%d0%bd%d0%b8%d0%ba%d0%b8 12
%d0%ba%d0%b8%d0%bd%d0%b4%d0%b5%d1%80 1
120 2
%d0%ba%d0%b0%d0%ba%d0%b8%d0%b5 5
%d0%b2%d0%b5%d1%80%d0%b5 1
%d0%bd%d0%be%d1%8f%d0%b1%d1%80%d1%8c 3
gjplhfdktybz 1
%d0%bd%d0%b5%d0%be%d0%b1%d1%8b%d1%87%d0%bd%d1%8b%d0%b9 1
%d0%bd%d0%b5%d0%be%d0%b1%d1%8b%d1%87%d0%bd%d0%be 1
%d0%bd%d0%b5%d0%be%d0%b1%d1%8b%d1%87%d0%bd%d1%8b%d0%b5 1
%d0%be%d1%80%d0%b8%d0%b3%d0%b8%d0%bd%d0%b0%d0%bb%d1%8c%d0%bd%d1%8b%d0%b5 1
%d1%81%d0%b2%d1%8b%d1%85%d0%be%d0%b4%d0%bd%d1%8b%d0%b5 1
%d0%bf%d0%bb%d0%b5%d1%82%d0%b5%d0%bd%d0%b8%d1%8e 1
6 2
%d1%83%d1%81%d1%82%d1%80%d0%be%d0%b8%d1%82%d1%8c 1
%d1%82%d0%b5%d0%bc%d0%b0%d1%82%d0%b8%d1%87%d0%b5%d1%81%d0%ba%d0%b8%d0%b9 1
%d0%b3%d0%be%d1%80%d0%be%d0%b4 7
%d0%bc%d0%b5%d0%bd%d1%8e 5
%d0%b4%d0%be%d1%87%d0%ba%d1%83 1
%d0%ba%d0%b0%d0%ba 13
%d1%81%d0%b4%d0%b5%d0%bb%d0%b0%d1%82%d1%8c 1
%d0%b3%d0%be%d0%b4 1
%d0%bc%d0%b0%d0%bb%d0%b5%d0%bd%d1%8c%d0%ba%d0%b8%d0%b9 1
2016 5
%d0%b5%d1%81%d0%b5%d0%bd%d0%b8%d0%bd%d0%b0 1
%d1%81%d1%8b%d0%bd%d1%83 1
%d1%80%d0%b5%d1%86%d0%b5%d0%bf%d1%82%d1%8b 1
%d0%b8%d0%bc%d0%b5%d0%bd%d0%b8%d0%bd%d1%8b 1
%d1%80%d0%be%d0%b6%d0%b4%d0%b5%d1%81%d1%82%d0%b2%d0%be 1
%d1%80%d0%b0%d1%81%d1%81%d0%ba%d0%b0%d0%b7 1
%d0%b2%d0%b5%d1%81%d0%b5%d0%bb%d0%be 1
%d1%81%d1%86%d0%b5%d0%bd%d0%ba%d0%b5 1
%d0%b2%d0%b5%d1%87%d0%b5%d1%80%d0%b8%d0%bd%d0%ba%d0%b8 1
%d0%be%d0%ba%d1%82%d1%8f%d0%b1%d1%80%d1%8c 2
%d0%ba%d0%be%d0%bd%d0%ba%d1%83%d1%80%d1%81%d1%8b 8
%d1%84%d1%83%d1%80%d1%88%d0%b5%d1%82%d0%bd%d1%8b%d0%b9 1
%d0%b8%d0%b3%d1%80%d1%8b 2
%d1%81%d0%b5%d0%bd%d1%82%d1%8f%d0%b1%d1%80%d1%8f2015 1
%d0%bf%d0%be 1
%d0%bc%d0%b5%d0%b4%d0%b2%d0%b5%d0%b4%d1%8c 1
%d0%bc%d0%b0%d0%bb%d1%8b%d1%88%d0%b0 1
%d0%be%d1%80%d0%b8%d0%b3%d0%b8%d0%bd%d0%b0%d0%bb%d1%8c%d0%bd%d0%be 1
%d0%b26 1
%d0%be 2
%d1%81%d1%82%d0%be%d0%bb 2
%d0%be%d0%bf%d1%82%d0%be%d0%b2%d0%ba%d0%b0 1
%d0%bb%d0%be%d1%82%d0%b5%d1%80%d0%b5%d1%8f 1
%d0%be%d0%b1%d1%8a%d1%8f%d1%81%d0%bd%d0%b8%d1%82%d1%8c 1
%d0%bd%d0%be%d1%8f%d0%b1%d1%80%d0%b5 1
%d0%b4%d0%b5%d0%b2%d0%be%d1%87%d0%ba%d0%b8 6
%d0%ba%d0%b0%d0%ba%d0%be%d0%bc 1
%d0%bc%d0%b0%d0%b4%d0%b0%d0%b3%d0%b0%d1%81%d0%ba%d0%b0%d1%80 1
%d1%86%d0%b5%d0%bd%d1%82%d1%80%d1%8b 1
%d0%bf%d1%80%d0%b5%d0%bc%d1%8c%d0%b5%d1%80%d1%8b 1
%d0%be%d1%80%d0%b8%d0%b3%d0%b8%d0%bd%d0%b0%d0%bb%d1%8c%d0%bd%d0%be%d0%b5 2
%d0%bb%d0%be%d0%b7%d1%8b 1
%d0%b0%d0%bd%d0%b8%d0%bc%d0%b0%d1%82%d0%be%d1%80 3
%d0%bd%d0%b0%d1%83%d1%87%d0%bd%d0%be%d0%b5 1
%d0%b1%d0%b0%d0%b9%d1%80%d0%b0%d0%bc 1
%d1%81%d0%b5%d0%bd%d1%82%d1%8f%d0%b1%d1%80%d0%b5 1
%d0%bf%d0%be%d0%b6%d0%b5%d0%bb%d0%b0%d0%bd%d0%b8%d0%b5 1
%d0%b5%d1%81%d0%b5%d0%bd%d0%b8%d0%bd 1
%d1%80%d0%b5%d0%b1%d1%91%d0%bd%d0%ba%d1%83 1
%d0%b0%d1%81%d1%82%d1%80%d0%b0%d1%85%d0%b0%d0%bd%d0%b8 1
%d1%81%d0%b0%d0%bb%d0%b0%d1%82%d1%8b 2
%d0%b2%d0%b8%d0%bd%d0%ba%d1%81 1
%d0%b2%d1%80%d0%b0%d1%87%d0%b0 1
%d0%90%d0%9d%d0%98%d0%9c%d0%90%d0%a2%d0%9e%d0%a0%d0%ab 1
2 2
%d0%b2%d1%81%d1%91 1
%d0%b3%d0%b4%d0%b5 19
%d0%b4%d0%b5%d0%bd%d0%b1 1
%d1%86%d0%b5%d0%bd%d1%82%d1%80 1
%d0%bd%d0%be%d1%8f%d0%b1%d1%80%d1%8f 1
%d0%ba%d0%be%d0%bc%d0%bd%d0%b0%d1%82%d1%8b 6
%d1%84%d0%be%d1%82%d0%be 4
%d1%81%d0%b8%d1%82%d0%b8 1
%d0%b2%d0%b5%d1%87%d0%b5%d1%80%d0%b8%d0%bd%d0%ba%d1%83 1
c 1
%d0%be%d1%82%d0%b4%d1%8b%d1%85%d0%b0%d0%b5%d0%bc 4
%d1%81%d0%bc%d0%b5%d1%88%d0%bd%d1%8b%d0%b5 1
%d0%bc%d0%b0%d1%81%d1%82%d0%b5%d1%80%d0%be%d0%b2 6
%d0%b8%d0%b3%d1%80%d0%b0 1
%d0%be%d1%80%d0%b3%d0%b0%d0%bd%d0%b8%d0%b7%d0%b0%d1%86%d0%b8%d0%b8 1
%d0%b4%d0%b5%d1%82%d0%b8 1
%d0%94%d0%95%d0%a2%d0%a1%d0%9a%d0%98%d0%95 1
%d1%80%d0%be%d0%b6%d0%b4%d0%b5%d0%bd%d0%b8%d1%8e 1
%d0%93%d0%9e%d0%94%d0%90 3
%d1%80%d0%b5%d0%b1%d0%b5%d0%bd%d0%ba%d0%b0 15
%d0%b8%d0%b3%d1%80%d0%b0%d1%82%d1%8c 2
%d0%bf%d1%80%d0%be%d0%b7%d0%b4%d0%bd%d0%b8%d0%ba 1
%d0%b2%d1%8b%d1%85%d0%be%d0%b4%d0%bd%d1%8b%d0%b5 4
%d0%bf%d0%be%d0%b4%d0%b0%d1%80%d0%b8%d1%82%d1%8c 3
%d0%be%d1%84%d0%be%d1%80%d0%bc%d0%bb%d0%b5%d0%bd%d0%b8%d0%b5 2
%d0%bb%d0%b5%d1%82 28
%d0%be%d1%84%d0%b8%d1%86%d0%b8%d0%b0%d0%bb%d1%8c%d0%bd%d1%8b%d0%b9 2
%d0%bc%d1%8b%d0%bb%d1%8c%d0%bd%d1%8b%d0%bc%d0%b8 2
%d1%81%d0%b0%d0%b9%d1%82 2
7 4
%d0%bf%d0%be%d0%b7%d0%b4%d1%80%d0%b0%d0%b2%d0%bb%d0%b5%d0%bd%d0%b8%d1%8f.%d1%81.%d0%b4%d0%bd%d0%b5%d0%bc.%d1%80%d0%be%d0%b6%d0%b4%d0%b5%d0%bd%d0%b8%d1%8f 1
%d0%b4%d0%b5%d1%88%d0%b5%d0%b2%d0%be 1
%d0%bf%d0%b5%d1%81%d0%bd%d0%b8 2
%d0%bc%d0%b0%d1%88%d0%b0 1
%d0%b3%d0%be%d1%80%d0%be%d0%b4%d0%b5 2
%d0%bc%d0%b0%d0%bb%d1%8c%d1%87%d0%b8%d0%ba%d1%83 9
%d1%81%d0%b5%d0%bd%d1%82%d1%8f%d0%b1%d1%80%d1%8f 2
%d0%bf%d0%be%d0%b7%d0%b4%d1%80%d0%be%d0%b2%d0%bb%d0%b5%d0%bd%d1%96%d1%8f 1
%d0%bd%d0%b5%d0%b4%d0%be%d1%80%d0%be%d0%b3%d0%be 1
%d0%bb%d0%bf%d0%ba 1
%d0%94%d0%95%d0%a2%d0%af 3
%d0%b4%d0%b5%d1%82%d1%81%d0%ba%d0%be%d0%b5 6
%d0%b1%d0%bb%d1%83%d0%bc 1
%d0%b6%d0%b8%d1%82%d0%b5%d0%bb%d0%b5%d0%b9 1
%d0%b4%d0%b5%d1%82%d1%81%d0%ba%d0%b8%d0%b9 19
%d0%bc%d0%b5%d0%b9%d0%b4 1
10 7
%d0%b2%d0%b5%d1%81%d0%b5%d0%bb%d1%8b%d0%b5 2
%d0%bf%d1%80%d0%be%d0%b3%d1%80%d0%b0%d0%bc%d0%bc%d1%8b 1
%d0%bc%d0%b0%d1%81%d1%82%d0%b5%d1%80%d0%b0 1
%d0%bf%d0%be%d0%bf%d1%81%d0%b0 1
%d0%b4%d0%b5%d0%b2%d0%be%d1%87%d0%b5%d0%ba 4
%d0%92%d0%be%d0%bb%d0%b6%d1%81%d0%ba%d0%be%d0%bc 1
%d1%81%d0%b0%d0%b4 1
%d1%81%d1%82%d0%b8%d0%bb%d0%b5 1
%d0%b4%d0%be%d1%87%d0%b5%d1%80%d0%b8 1
%d1%85%d1%8d%d0%bd%d0%b4 1
%d0%b2%d0%be%d0%bb%d0%b3%d0%be%d0%b3%d1%80%d0%b0%d0%b4 10
%d0%b3%d0%be%d0%b4%d0%b8%d0%ba 1
%d1%81%d0%bb%d0%b5%d0%b4%d1%83%d1%8e%d1%89%d0%b8%d0%b9 1
%d0%b2%d0%be%d0%bb%d0%b3%d0%be%d0%b3%d1%80%d0%b0%d0%b4%d0%b5 12
%d1%80%d0%be%d0%b6%d0%b4%d0%b5%d0%bd%d0%b8%d0%b5 4
%d0%b4%d0%b5%d0%b2%d0%be%d1%87%d0%ba%d0%b0 1
%d0%a1 4
%d0%a8%d0%a3%d0%a2%d0%9e%d0%a7%d0%9d%d0%9e%d0%95 1
%d0%bf%d1%80%d0%b8%d0%ba%d0%be%d0%bb%d1%8c%d0%bd%d1%8b%d0%b5 2
%d0%bf%d0%b5%d1%81%d0%b5%d0%bd%d0%ba%d0%b8 4
%d0%b2%d1%81%d0%b5 4
%d1%85%d0%be%d1%80%d0%be%d1%88%d0%b8%d0%b9 1
%d0%bf%d1%80%d0%be%d0%b3%d1%80%d0%b0%d0%bc%d0%bc%d0%b0 19
%d0%bf%d0%be%d0%b4%d0%b0%d1%80%d0%ba%d0%b8 2
%d0%be%d1%82%d0%bf%d1%80%d0%b0%d0%b7%d0%b4%d0%bd%d0%be%d0%b2%d0%b0%d1%82%d1%8c 6
%d0%be%d0%ba%d1%82%d1%8f%d0%b1%d1%80%d1%8f 2
%d0%bf%d1%80%d0%b0%d0%b7%d0%b4%d0%bd%d0%be%d0%b2%d0%b0%d0%bb%d0%b8 1
%d0%bb%d0%b5%d1%82%d0%b8%d0%b5%d0%bc 1
%d0%ba%d0%b0%d1%80%d1%82%d0%b8%d0%bd%d0%ba%d0%b8 1
%d1%81%d0%bb%d1%83%d1%88%d0%b0%d1%82%d1%8c 2
%d0%b1%d1%83%d0%b4%d1%83%d1%82 2
%d0%bf%d1%80%d0%be%d0%b2%d0%b5%d1%81%d1%82%d0%b8 4
%d0%92%d0%9e%d0%9b%d0%b6%d0%a1%d0%9a%d0%98%d0%99 1
%d0%bd%d0%b0%d0%b4%d1%83%d0%b2%d0%bd%d0%be%d0%b9 1
10-11 1
ujlf 1
%d0%bb%d0%b5%d1%82%d0%be%d0%bc%3f 1
%d0%be%d1%82%d0%b7%d1%8b%d0%b2%d1%8b 2
13 1
%d0%b2%d1%8b%d0%bf%d1%83%d1%81%d0%ba%d0%bd%d0%be%d0%b9 1
%d0%b1%d0%b0%d1%82%d1%83%d1%82 1
3 6
%d0%b3%d0%be%d0%b4%d0%b0 8
9 6
%d0%ba%d1%83%d1%80%d0%b1%d0%b0%d0%bd 1
%d0%b8%d0%b4%d0%b5%d0%b8 1
%d0%b4%d0%b5%d0%b2%d0%be%d1%87%d0%ba%d0%b5 14
4 5
%d0%ba%d0%b0%d0%b7%d0%b0%d1%87%d0%b5%d1%81%d1%82%d0%b2%d0%b0 1
%d0%bc%d0%b5%d1%80%d0%be%d0%bf%d1%80%d0%b8%d1%8f%d1%82%d0%b8%d0%b9 19
hj%3bltybz 1
%d0%b4%d0%b5%d1%82%d1%81%d0%ba%d0%b0%d1%8f 1
END_KEYWORDS

# Errors - Hits - Bandwidth
BEGIN_ERRORS 5
403 64 238272
503 7 4340
302 14 0
206 12 700935
404 244 591150
END_ERRORS

# URL with 404 errors - Hits - Last URL referer
BEGIN_SIDER_404 79
/admin/content/sitetree/ 1 -
/robots.txt 2 -
/halloween/ 5 http://yandex.ru/clck/jsredir
/manager/ 1 -
/img/otzyivyi-2.jpg 2 http://www.madagaskar.com.ru/
/api/site/1.0/ 4 -
/Directory.wssp 39 -
/wordpress/wp-login.php 1 -
/manager/templates/default/css/login-min.css 1 -
/wp-admin/ 1 -
/m/ 1 -
/netcat/admin/ 1 -
/haloween 1 -
/SkinFiles/madagaskar.com.ru/Pronto4/playerProductInstall 1 -
/manager/media/script/mootools/mootools.js 1 -
/admin/wp-login.php 1 -
/wp-admin/wp-login.php 1 -
/wp-content/ 1 -
/node/ 1 -
/img/master-klass-poavaryatal.jpg 2 http://www.madagaskar.com.ru/
/buy/ 4 -
/mobile/ 4 -
/cms/wp-login.php 1 -
/manager/templates/default/images/style/modx-logo-header.png 1 -
/Pronto4/ 23 -
/netcat/admin/skins/default/css/style.css 1 -
/bitrix/js/main/core/core.css 1 -
/images/cms/admin/mac/common/butterfly.png 1 -
/login/ 19 -
/blog/wp-login.php 1 -
/example/parallax/progress.jpg 3 http://www.madagaskar.com.ru/css/main.css
/mobile/sys/chatroomlist.wcgp 2 -
/wp-login.php 2 -
/sys/chatroomlist.wcgp 19 -
/img/otzyivyi-1.jpg 2 http://www.madagaskar.com.ru/
/site/wp-login.php 1 -
/netcat/admin/skins/default/css/login.css 1 -
/manager/media/style/MODxCarbon/images/misc/logo.png 1 -
/manager/media/style/MODxCarbon/images/misc/login-logo.png 1 -
/example/parallax/skills.jpg 3 http://www.madagaskar.com.ru/css/main.css
/manager/templates/default/images/restyle/headers.jpg 1 -
/thx/ 8 http://yandex.ru/clck/jsredir
/bitrix/themes/.default/images/auth_pict.gif 1 -
/apple-touch-icon.png 2 -
/SkinFiles/madagaskar.com.ru/Pronto4/pronto 1 -
/users/forget/ 1 -
/wp-login/ 1 -
/modules/system/system.base.css 1 -
/templates/system/css/system.css 1 -
/SkinFiles/madagaskar.com.ru/Viewpoint/pronto.apk 1 -
/netcat/admin/skins/default/img/logo.png 1 -
/modules/system/system.css 1 -
/user/login/ 1 -
/img/vyipusknoj.jpg 2 http://www.madagaskar.com.ru/
/wp/wp-login.php 1 -
/bitrix/themes/.default/adminstyles.css 1 -
/styles/skins/mac/design/css/style.css 1 -
/users/registrate/ 1 -
/section/wp-login.php 1 -
/apple-touch-icon-precomposed.png 1 -
/init 4 -
/img/animatoryi-479.jpg 2 http://www.madagaskar.com.ru/
/installed 1 -
/SkinFiles/madagaskar.com.ru/Viewpoint/style.css 3 http://madagaskar.com.ru/Directory.wssp
/wp-admin/images/wordpress-logo.png 1 -
/img/malchik-samololet-1578.jpg 2 http://www.madagaskar.com.ru/
/products/Canselyariya.php 3 -
/example/parallax/land.jpg 3 http://www.madagaskar.com.ru/css/main.css
/manager/media/style/MODxCarbon/style.css 1 -
/den-rozhdeniya-v-kindercity.html 2 -
/hPronto/ 24 -
/wp-admin/css/wp-admin.css 1 -
/media/system/js/mootools.js 1 -
/bitrix/admin/ 1 -
/img/otzyivyi-3.jpg 2 http://www.madagaskar.com.ru/
/m/sys/chatroomlist.wcgp 2 -
/SkinFiles/madagaskar.com.ru/hPronto-/ 1 -
/apple-app-site-association 1 -
/user/password/ 1 -
END_SIDER_404

# Host - Pages - Hits - Bandwidth - Last visit date - [Start date of last visit] - [Last page of last visit]
# [Start date of last visit] and [Last page of last visit] are saved only if session is not finished
# The 10 first Hits must be first (order not required for others)
BEGIN_VISITOR 575
83.167.80.226 30 288 6013767 20150914114607
188.233.160.23 21 463 5645883 20150907012444
91.202.207.68 21 195 5527048 20150930143624
77.88.23.219 20 20 1128420 20150914145745
83.239.163.36 19 166 5114727 20150928094404
95.165.23.111 18 104 3772859 20150908150543
94.233.34.214 17 150 4899392 20150915133332
176.212.87.164 16 149 4967033 20150920165527
83.239.161.10 15 144 6728534 20150929140018
85.159.224.157 13 105 4614979 20150928171950
2.94.95.9 11 97 3388245 20150927230556
188.233.71.117 4 47 1546696 20150912190628
178.216.183.237 5 48 1665912 20150919224204
188.32.135.174 1 44 1383656 20150922004905
2.94.237.192 5 48 1665912 20150927193614
128.73.20.232 4 47 1546696 20150922120246
93.81.223.22 5 7 403518 20150919120141
95.25.12.110 6 13 641858 20150929035654
83.239.141.241 4 47 1546696 20150925172512
31.128.134.39 5 48 1665912 20150921084648
31.128.132.113 5 48 1665912 20150927101729
151.0.55.200 5 48 1665912 20150923185747
46.29.234.63 5 48 1665912 20150925161403
217.69.133.169 1 1 56421 20150920144019
79.111.173.169 0 3 145867 
89.23.190.29 5 48 1665912 20150909112908
128.73.53.71 5 48 1665912 20150927104556
85.159.225.141 4 47 1546696 20150916145657
31.130.26.162 5 48 1665912 20150925200737
109.173.44.207 1 44 1383656 20150923031154
176.59.72.210 4 47 1657540 20150925190135
176.59.72.228 7 52 1850173 20150929202800
31.128.153.190 6 53 1817817 20150930150401
89.23.149.23 5 48 1665912 20150918155107
89.23.129.100 4 47 1657540 20150908213620
94.233.6.199 4 47 1657540 20150922190710
89.23.134.226 5 48 1665912 20150921225052
128.73.178.57 9 52 1780637 20150929205517
91.202.204.8 5 48 1594277 20150926124312
95.221.226.201 1 44 1383656 20150927012611
178.140.63.243 1 44 1383656 20150926005244
85.159.225.132 9 95 3199606 20150914160832
31.128.131.27 5 48 1665912 20150917183100
95.153.131.188 4 47 1629760 20150927111224
91.123.88.20 5 48 1665912 20150910103749
128.73.215.42 5 48 1603117 20150910051316
89.23.165.63 5 48 1665912 20150917172627
31.130.16.161 5 48 1665912 20150911113051
89.23.184.191 5 48 1665912 20150917120345
62.122.92.15 6 49 1722333 20150907150257
89.23.138.107 5 48 1665912 20150910111046
188.233.0.98 6 49 1722333 20150919221836
2.93.209.175 5 48 1665912 20150928083744
89.23.141.184 5 48 1665912 20150930133132
31.128.152.27 5 48 1665912 20150907220322
31.130.3.244 5 50 1627745 20150921105810
89.23.185.46 5 48 1665912 20150914193353
213.234.17.14 5 48 1594277 20150921114616
91.123.91.127 5 48 1665912 20150912122139
46.188.41.86 6 80 1839911 20150920030112
31.128.140.138 4 47 219461 20150924204756
31.130.4.135 5 48 1665912 20150918010322
188.32.241.164 1 44 1383656 20150924061740
89.23.160.216 5 48 1665912 20150915194735
176.77.102.225 6 43 1416468 20150919031632
31.128.147.119 5 48 1665912 20150907215234
128.73.53.213 5 48 1665912 20150920191031
62.122.88.174 5 48 1594277 20150909104248
89.23.171.18 8 51 1953709 20150923101619
31.180.150.210 7 52 1856651 20150926122237
83.149.19.153 1 5 95829 20150904180929
95.211.109.75 1 1 56421 20150907233959
128.73.11.149 5 48 1665912 20150910193322
31.130.21.27 6 49 1722333 20150911231004
188.233.121.247 12 141 4640088 20150916131034
2.93.173.133 5 48 1665912 20150916162934
95.24.57.92 1 44 1383656 20150916040226
31.130.3.144 4 47 1546696 20150915145440
89.23.187.103 5 48 1665912 20150925160723
78.106.241.151 5 48 1665912 20150914231247
31.130.0.98 5 48 1665912 20150930152401
178.78.11.112 5 48 1665912 20150919212531
178.140.10.180 1 41 331471 20150913011217
89.23.184.220 5 48 1665912 20150921212315
176.77.79.79 1 44 1383656 20150922004906
176.193.108.79 1 44 1383656 20150911030827
85.26.233.210 1 28 228266 20150916121346
88.24.127.95 5 48 1665912 20150921152750
89.23.180.209 5 48 1665912 20150929110945
95.84.182.66 5 48 1665912 20150907085257
89.23.167.81 1 1 56421 20150924122627
217.118.81.223 5 48 1603117 20150922005738
91.123.86.162 4 47 1546696 20150916123303
217.118.81.24 1 14 233959 20150917122836
46.53.201.79 5 48 1665912 20150914143303
89.23.182.154 5 48 1665912 20150915180222
89.178.67.71 1 44 1383656 20150907184734
89.23.186.237 5 48 1665912 20150908210153
31.130.25.5 9 95 3212608 20150916081034
5.228.28.251 0 3 145867 
178.216.182.194 4 47 1546696 20150924223146
31.130.3.40 5 48 1665912 20150911151656
85.159.227.12 5 48 1665912 20150920072652
89.23.162.133 5 48 1665912 20150921184237
128.73.217.21 4 47 1546696 20150921081138
31.128.148.110 5 48 1665912 20150923214911
176.9.50.43 2 2 112842 20150926015509
89.23.187.49 5 48 1570016 20150923111359
62.122.90.11 5 48 1665912 20150925152108
31.128.151.96 1 30 239682 20150917173910
77.37.222.57 1 44 1383656 20150929002701
46.29.234.126 4 47 1657540 20150924210905
185.26.120.79 6 6 338526 20150917091359
89.23.170.182 1 1 56421 20150920145347
88.87.80.108 5 48 1665523 20150929152810
89.23.173.43 6 49 1722333 20150922102723
188.244.45.43 0 3 145867 
89.23.131.126 5 48 1665912 20150918125541
31.130.26.2 4 47 1546696 20150919064303
46.242.126.96 6 43 1416468 20150926041745
195.239.190.246 5 48 1665523 20150915144716
144.76.106.202 10 10 564210 20150923101615
83.239.161.250 10 96 3331824 20150923111930
31.130.16.48 5 48 1665912 20150917214859
95.24.213.145 6 43 1416468 20150915042551
46.29.233.246 6 49 1722333 20150921115730
217.118.81.27 4 47 1261881 20150927194900
213.234.2.114 11 97 3396498 20150924122434
31.130.0.84 5 48 1665912 20150914195620
31.130.22.199 5 48 1665912 20150918150729
37.144.15.161 5 36 456255 20150911052148
93.157.163.154 5 48 2195088 20150925111935
95.221.237.68 1 44 1383656 20150930235259
62.122.95.17 5 48 1665912 20150925160205
217.118.81.252 5 48 1665912 20150928093419
128.73.121.225 5 48 1665912 20150923111315
77.51.60.196 5 48 1665912 20150923091329
176.14.2.34 6 43 1416468 20150926041753
89.23.172.66 5 48 1665912 20150921080652
85.174.58.250 4 47 1546696 20150911204225
46.73.229.190 5 48 1665912 20150914145749
91.123.89.9 5 48 1665912 20150927132955
66.249.81.246 1 22 269216 20150923070919
217.118.81.217 4 47 1546696 20150926150734
85.159.224.144 5 48 1665912 20150928091008
31.128.153.231 6 49 1722333 20150930210112
31.128.134.65 5 48 1665912 20150926140106
91.123.80.128 5 48 1665912 20150923182951
178.155.105.65 5 48 1665912 20150916104057
89.23.131.173 6 49 395098 20150925002105
89.23.131.10 1 33 900994 20150928005539
66.249.81.252 1 12 964554 20150923070914
89.23.172.192 8 51 1722333 20150910223536
176.212.92.140 1 1 56421 20150914201651
217.118.81.232 5 48 1665912 20150923121452
85.159.225.134 5 52 1822948 20150911214522
176.193.98.140 1 44 1383656 20150912043305
5.139.20.98 5 48 1665912 20150916220542
91.123.85.13 7 50 1778754 20150929123314
66.249.81.249 3 14 432142 20150923070925
89.23.140.113 6 52 1699959 20150916092202
31.128.157.42 12 141 4640088 20150930181442
31.128.128.234 5 48 1665912 20150923160417
95.221.239.196 1 44 1383656 20150919001147
217.118.81.193 4 47 1546696 20150907221215
176.59.75.29 1 7 123578 20150909082510
178.57.195.168 0 1 7317 
176.195.79.117 0 29 665092 
85.26.165.185 4 47 1546696 20150908090908
188.247.45.170 4 47 1573942 20150917145535
2.92.145.124 5 36 456255 20150920030042
93.81.77.202 1 44 1383656 20150928003145
128.73.178.164 5 48 1665912 20150930210702
37.144.8.241 5 36 456255 20150911052156
85.26.183.67 3 40 499768 20150927205059
31.128.146.12 4 47 1629760 20150918095454
89.23.189.224 5 48 1665912 20150925160729
95.221.232.146 1 44 1383656 20150926005244
188.233.23.201 5 48 1665912 20150915164214
89.23.188.240 5 48 1665912 20150919180316
2.92.39.101 4 47 1546696 20150915122249
92.39.108.94 5 48 1665912 20150924113312
91.123.94.148 5 12 469385 20150920152140
195.189.120.31 3 34 400302 20150909084004
31.128.137.133 4 47 1546696 20150920014014
62.122.89.237 4 47 1657540 20150923215427
31.130.27.249 5 48 1665912 20150914221004
89.23.145.167 9 95 3323452 20150930154917
31.130.3.50 6 49 1722333 20150920115512
195.189.123.215 4 47 1546696 20150921201252
88.87.74.146 5 48 1594277 20150916105141
95.182.77.249 5 48 1665912 20150921190943
31.130.5.205 5 48 1665912 20150930155924
212.46.213.102 6 49 1722333 20150917085825
178.216.179.13 5 48 1594277 20150908104028
31.130.24.142 5 48 1665912 20150919234124
119.147.146.189 1 2 62678 20150929143809
89.23.178.15 5 48 1665912 20150921103538
91.77.82.28 1 44 1383656 20150930014540
95.182.77.200 5 48 1665912 20150920124501
95.28.253.22 6 49 1722333 20150907091051
89.23.169.67 4 47 1657540 20150912102844
88.87.82.163 5 48 1665912 20150911114918
95.84.182.70 5 48 1665912 20150908105700
46.29.232.40 6 49 427058 20150914223620
31.130.20.139 5 48 1665912 20150911113001
176.212.84.38 5 48 1665912 20150930082218
178.212.80.176 5 48 1665912 20150925051817
62.122.95.141 5 48 1665912 20150912142459
85.159.227.1 12 98 3444666 20150924170152
93.81.113.31 1 44 1383656 20150930235300
89.23.166.224 5 48 1665912 20150929144522
79.104.48.38 5 48 1665523 20150928080040
128.73.178.206 5 48 1665912 20150909150000
217.118.81.216 9 95 3323452 20150913160109
5.45.255.69 6 49 1722333 20150915232810
31.128.138.1 5 48 1665912 20150909183116
94.233.122.127 5 48 1665912 20150920230841
62.122.95.226 5 48 1665912 20150921154921
85.26.234.37 5 48 1665912 20150930154711
89.23.131.19 4 47 1546696 20150907230805
85.115.248.120 5 48 1665912 20150918102301
31.128.149.3 4 47 1657540 20150928165904
5.45.192.83 5 48 1665912 20150920000606
217.118.81.231 5 48 1665912 20150923133809
217.173.65.6 5 48 1665912 20150918105350
91.123.85.237 5 48 1570016 20150919075152
178.216.179.11 5 48 1665912 20150917162138
95.153.131.120 5 44 667099 20150926111018
178.155.94.95 5 48 1594277 20150911182824
85.26.232.247 5 48 1665912 20150908224534
89.23.143.133 5 48 1665912 20150928211525
31.128.139.196 5 48 1665912 20150916113605
89.23.172.224 5 48 1665912 20150907222059
89.23.145.212 5 48 1665912 20150918152552
46.73.129.175 8 51 1722333 20150914145006
188.233.116.106 5 48 1665912 20150919121813
95.182.77.175 5 48 1665912 20150921112653
31.128.137.234 5 48 1665912 20150925140632
89.23.136.88 6 49 1722333 20150930134428
89.178.180.135 5 36 456255 20150916065247
37.204.155.195 1 44 1383656 20150930014541
89.23.162.27 5 48 1665912 20150926081811
188.233.33.83 5 48 1665912 20150911123011
213.234.2.106 5 48 1665912 20150915104750
93.157.163.172 5 48 1665912 20150917144510
212.119.203.42 5 48 1665912 20150927171444
188.247.45.46 4 47 1657540 20150917102448
89.23.165.67 5 48 1665912 20150920083614
95.153.135.171 4 47 1546696 20150929133939
178.216.178.194 8 55 1684596 20150908134131
89.23.174.245 8 180 1835175 20150916110812
62.122.89.151 5 48 1665912 20150914180511
212.38.104.42 5 48 1665912 20150930170158
85.26.233.220 4 47 1546696 20150929193253
89.23.187.169 5 48 1594277 20150909125235
178.216.178.30 4 47 1657540 20150911184540
150.70.173.41 1 1 56421 20150930170344
188.233.112.70 5 48 1665912 20150925125921
79.104.51.174 5 48 1594277 20150914094647
31.128.138.228 5 48 1665912 20150928203650
89.23.165.144 5 48 1665912 20150924164927
31.128.144.186 5 48 1665912 20150930090901
176.212.87.79 1 13 987844 20150920184751
37.147.117.136 6 92 1722333 20150915153926
89.23.167.41 5 48 1665912 20150921104808
89.23.152.126 5 48 1665912 20150921160611
46.29.234.71 7 50 1778754 20150911153736
89.23.140.203 5 48 1665912 20150918101244
89.23.178.110 5 48 1665912 20150923141557
188.235.132.29 5 48 1665912 20150911102105
89.23.146.141 5 48 1665912 20150920211231
37.144.19.57 0 3 145867 
31.130.4.90 6 49 1722333 20150910165801
62.122.89.36 5 48 1665912 20150909115649
176.195.75.168 1 44 1383656 20150917004944
89.23.155.161 5 48 1665912 20150930163416
109.173.57.209 1 44 1383656 20150913212737
213.234.15.210 10 96 3331046 20150917091410
2.94.237.198 12 98 3444666 20150911230730
85.159.224.86 5 48 2266723 20150916151926
89.178.180.98 1 44 1383656 20150924061738
31.128.139.197 6 49 1722333 20150928202035
89.23.178.63 4 47 1546696 20150916205751
217.118.81.234 4 47 1546696 20150909130250
62.122.92.209 5 48 1665912 20150921152307
92.222.64.16 1 1 56421 20150907030651
31.130.22.2 5 48 1665912 20150908140000
95.182.77.235 5 48 1665912 20150909112554
188.255.103.94 1 44 1383656 20150929002701
89.23.175.4 5 48 175637 20150916135339
89.23.161.29 5 48 1665912 20150922161823
89.23.131.139 5 48 1665912 20150921213935
188.42.240.119 2 2 112842 20150912014556
91.123.84.149 5 48 1665912 20150915143231
141.8.189.107 1 1 56421 20150921025925
85.26.164.195 1 9 151722 20150919122216
89.23.174.140 4 47 1546696 20150922154232
188.233.112.76 7 50 1778754 20150912103724
89.23.173.34 5 48 1594277 20150911215527
62.122.95.140 10 96 3331824 20150917075741
128.74.247.22 1 44 1383656 20150910032257
88.87.92.130 4 47 1546696 20150916171217
178.216.182.81 6 49 1722333 20150920123445
62.122.90.8 5 48 1686181 20150925072727
89.23.173.16 5 48 1665912 20150908164952
212.119.220.90 5 48 1665912 20150911100122
95.221.212.81 1 44 1383656 20150925052338
5.164.100.105 1 44 1383656 20150922004104
176.14.236.17 1 44 1383656 20150921015456
188.233.112.112 5 48 1665912 20150917172649
85.159.227.100 9 52 2525393 20150916152146
46.42.174.39 5 36 456255 20150923063714
178.216.183.197 4 47 1546696 20150918205933
178.212.81.73 5 48 1665912 20150910233544
31.130.27.16 6 49 1722333 20150930184803
91.202.204.104 5 48 1665912 20150930130334
176.212.86.160 5 48 1603117 20150914101800
31.130.23.230 5 48 1686181 20150910201418
2.93.83.216 5 48 1665912 20150930082010
176.193.171.192 1 44 1383656 20150917004943
95.153.132.230 5 48 1665912 20150925091937
89.23.189.13 5 48 1665912 20150926123703
46.147.109.199 1 44 1383656 20150913011217
95.24.37.250 1 44 1383656 20150921015455
31.130.20.205 5 48 1665912 20150921172550
31.128.149.202 4 47 1546696 20150916054314
128.73.52.113 5 48 1665912 20150928195323
95.24.209.18 1 44 1383656 20150911030827
188.247.45.70 6 51 1856547 20150915115059
83.149.21.158 4 47 1546696 20150910095721
85.159.224.70 5 48 1665912 20150922102958
91.123.83.75 5 48 1665912 20150910083104
178.216.178.186 5 48 1665912 20150914134839
95.221.251.39 6 43 1416468 20150915042550
5.45.192.104 4 39 1595626 20150929223111
62.122.89.61 6 49 1722333 20150929184024
212.46.227.70 5 48 1665912 20150929085347
176.195.188.154 1 28 1160505 20150913212736
31.130.3.178 5 48 1665912 20150925213907
2.93.35.72 5 48 1665912 20150925223945
188.162.39.11 5 48 1665912 20150919122333
89.23.169.62 5 48 1665912 20150915102224
46.243.174.231 5 48 1665912 20150925083906
89.23.130.237 4 47 1546696 20150922234920
83.239.165.152 11 54 1835175 20150917164920
91.123.86.201 5 48 1665912 20150907210838
91.123.94.179 5 48 1665912 20150925220442
89.23.176.61 5 48 1594277 20150918185750
188.244.36.217 1 44 1383656 20150928003144
37.147.101.16 4 47 1629760 20150915193407
31.128.157.162 8 51 1722333 20150928185352
89.23.174.53 5 48 1665912 20150914200436
188.247.45.119 5 48 1665912 20150918163633
178.216.182.239 5 48 1665912 20150927202807
89.23.141.159 5 48 1665912 20150919222612
31.130.7.248 5 48 1665912 20150918061004
5.45.192.79 4 42 1510836 20150908162655
217.118.81.242 4 87 2109531 20150923093147
89.23.177.108 9 52 1780637 20150907214738
95.26.40.19 1 44 1383656 20150927012612
62.122.91.155 5 48 1665912 20150912081502
31.128.155.2 5 48 1665912 20150914232035
128.204.18.144 1 44 1383656 20150912043304
128.73.217.56 3 46 1538324 20150926233633
5.45.255.97 4 45 1600389 20150920145351
89.23.151.146 5 48 1665912 20150926191256
46.73.136.238 1 44 1383656 20150920003957
89.23.150.165 5 48 1665912 20150924191843
95.28.28.170 1 44 1383656 20150915030649
176.193.98.5 1 44 1383656 20150913212736
89.23.134.84 5 48 1665912 20150909192013
5.164.98.136 6 43 1416468 20150925082158
2.94.209.190 6 49 1722333 20150916090227
217.149.187.62 6 49 1722333 20150914123930
128.73.11.5 5 48 1665912 20150910092122
89.23.174.190 7 52 1912968 20150915114610
188.123.245.62 5 48 1665912 20150907102653
89.23.145.157 9 52 1780637 20150920165058
188.233.13.252 4 47 1546696 20150915174821
62.122.90.2 5 48 1665912 20150919073019
89.23.153.10 4 47 1546696 20150919000251
89.23.183.164 5 48 1665912 20150910184458
89.23.181.19 5 48 1665912 20150911173554
91.123.90.251 5 48 1665912 20150912153348
31.128.138.57 5 48 1594277 20150910155153
31.130.16.97 6 49 1722333 20150919151546
212.119.216.126 5 48 1665912 20150910140113
31.130.23.21 5 129 4551110 20150918231054
91.123.95.61 5 48 1665912 20150929074200
77.37.220.99 1 44 1383656 20150930235259
46.188.81.180 1 44 1383656 20150919001148
5.255.253.2 1 1 56421 20150921025925
89.23.129.42 5 48 1665912 20150928134203
62.122.88.164 5 48 1665912 20150926125339
91.123.81.246 5 48 1665912 20150915213735
178.216.180.212 5 48 1665912 20150918135126
89.23.161.181 5 48 1665912 20150928154136
95.24.216.109 1 44 1383656 20150920003957
2.94.209.204 4 47 1546696 20150919141353
89.23.166.60 5 48 1665912 20150908090939
178.216.178.74 5 48 1665912 20150912095719
37.204.72.44 1 44 1383656 20150921015455
89.23.157.179 5 48 1665912 20150916220209
91.202.204.209 10 96 3331824 20150929150155
89.23.155.199 6 49 1722333 20150921221805
89.23.162.58 5 48 1665912 20150923203313
89.23.140.37 5 48 1665912 20150930110530
89.23.180.25 1 1 56421 20150919112411
188.233.26.35 1 5 95829 20150905014001
128.73.121.175 5 48 1665912 20150909131610
217.118.81.240 6 89 968983 20150924145049
31.130.3.131 5 21 1528799 20150926165418
89.23.181.101 5 48 338677 20150916122628
178.216.176.88 5 48 1665912 20150912102400
88.87.90.71 5 48 1665912 20150919142633
217.118.81.248 5 50 1663469 20150918165214
89.23.157.32 5 48 1665912 20150923194524
89.23.133.132 5 48 1665912 20150909093112
31.128.148.136 5 48 1603117 20150908120851
212.119.220.70 10 96 4533446 20150921090437
85.198.110.100 13 107 3851542 20150928150142
85.26.165.116 8 52 654031 20150924125638
31.128.148.77 4 47 1546696 20150930130936
188.233.52.38 5 48 1665912 20150928143908
88.87.72.99 4 47 1657540 20150917102045
85.159.225.128 5 48 1594277 20150910114040
91.123.93.28 5 48 1665912 20150928204734
85.26.165.149 5 48 1665912 20150926223938
111.206.36.10 1 1 56421 20150927163042
128.68.21.25 1 44 1383656 20150920003958
178.140.37.149 5 36 456255 20150911052212
46.242.6.21 6 43 1416468 20150925082151
85.26.236.42 5 48 1594277 20150915144209
31.128.148.228 5 48 1665912 20150920000257
5.45.255.73 1 9 258453 20150908162847
2.93.173.237 5 48 1665912 20150929202617
46.251.72.226 1 44 1383656 20150913011217
85.174.34.72 5 48 1665912 20150921200924
217.118.81.21 5 48 1665912 20150918091218
46.188.71.24 6 43 1416468 20150919031656
217.118.81.214 10 96 3269029 20150929184402
89.23.175.154 5 48 1665912 20150910181318
31.128.144.154 5 48 1665912 20150927153342
176.14.6.148 6 14 751376 20150925082151
176.212.86.27 5 49 1667138 20150917114525
188.233.90.212 5 48 1665912 20150916074728
217.118.81.206 7 51 1779980 20150908122333
89.23.160.161 5 48 1665912 20150928114512
31.128.132.38 5 48 1665912 20150921172211
217.118.81.227 3 42 1468041 20150911100118
178.216.181.24 5 48 1665912 20150921142147
78.107.191.74 9 89 2376309 20150929153448
89.23.151.90 5 48 1665912 20150916110546
5.164.88.75 1 44 1383656 20150919001148
89.23.188.129 5 48 1665912 20150925171432
85.26.233.173 8 53 1921844 20150921154307
85.159.227.0 10 96 3331824 20150929231213
2.92.211.231 6 18 1007691 20150929035549
62.122.89.87 5 48 1665912 20150918085639
31.128.128.181 6 49 1722333 20150923202625
182.254.153.54 1 1 56421 20150928171703
62.122.95.81 5 48 1665912 20150929124734
85.159.227.6 4 47 1546696 20150926084839
95.153.132.25 5 48 1665912 20150921181334
89.178.38.27 1 44 1383656 20150916040227
195.189.120.15 1 42 1374554 20150924210355
188.233.112.3 5 48 1665912 20150907144949
178.216.176.36 5 48 1665912 20150922182620
213.234.11.178 5 48 1594277 20150908153104
46.242.127.241 6 43 1416468 20150926041759
46.73.184.85 1 44 1383656 20150925052337
212.103.111.17 5 48 1665912 20150924212012
188.32.230.202 1 44 1383656 20150912043305
109.173.59.231 6 19 1012641 20150929035603
95.25.105.229 1 44 1383656 20150925052338
46.42.171.60 0 3 145867 
85.26.164.99 5 48 338677 20150909072814
188.32.70.113 1 44 1383656 20150926005245
89.23.184.127 5 48 1665912 20150925114641
89.23.143.31 6 49 1722333 20150909234437
31.128.153.73 5 48 1665912 20150908001729
5.45.255.86 4 47 1657540 20150923135730
144.76.138.101 10 10 564210 20150908151530
90.154.95.119 1 44 1383656 20150917004942
89.23.160.106 5 48 1665912 20150912082825
89.23.130.172 6 49 1722333 20150911150739
31.128.141.125 4 47 1546696 20150921213934
128.73.199.92 5 48 1665912 20150930204950
37.204.120.18 1 44 1383656 20150923031154
62.149.1.74 1 1 56421 20150910200949
89.23.139.163 4 47 330305 20150923065728
217.118.93.110 9 52 1891596 20150914132506
89.249.234.43 5 49 1667138 20150922005234
176.193.103.200 1 37 1349245 20150910032258
31.128.143.33 4 47 1657540 20150917201459
46.29.232.204 5 48 1665912 20150925185023
2.92.20.197 5 48 1665912 20150927222924
89.23.155.6 4 47 1546696 20150927212407
89.23.162.25 7 50 1778754 20150914142404
85.174.78.242 5 48 1665912 20150921144335
195.239.146.34 5 48 1665912 20150915123409
88.87.71.227 5 48 1665912 20150922150744
89.23.177.2 2 40 594354 20150910163710
95.153.130.68 5 48 1665912 20150919123737
31.130.20.106 5 48 1665912 20150921183116
2.93.250.10 5 48 1665912 20150922122120
31.130.20.116 5 48 1665912 20150914125559
188.32.46.9 1 44 1383656 20150928003143
95.153.134.120 5 48 1665912 20150907120741
195.189.123.221 4 47 1546696 20150908190028
188.233.108.29 5 48 1665912 20150919134158
128.73.151.111 5 48 1665912 20150910002239
2.92.29.111 5 48 1665912 20150926001933
89.23.162.8 3 5 172142 20150924210407
85.159.224.91 5 48 1665912 20150921153606
89.23.162.127 5 48 1665912 20150908213251
89.23.152.169 5 48 1665912 20150930130021
37.190.107.185 1 1 56421 20150923194727
89.23.155.99 5 48 1594277 20150925102258
89.23.190.252 5 48 1665912 20150925132321
95.24.226.187 6 43 1416468 20150919031703
2.93.35.232 6 49 1722333 20150925100650
89.23.186.29 5 48 1665912 20150922092318
176.212.84.156 5 48 1665912 20150930160857
85.26.164.226 9 54 2184165 20150928230055
217.118.81.213 7 52 2540729 20150916170009
217.149.180.58 4 47 1459381 20150911152606
91.123.81.232 4 47 1657540 20150921000224
89.23.167.135 5 48 1665912 20150922105707
89.23.175.31 5 48 1665912 20150926093415
188.32.30.29 1 44 1383656 20150911030828
217.118.81.237 4 47 1546696 20150914191107
85.159.227.5 5 48 1665912 20150927081148
31.128.151.178 5 48 1665912 20150929143303
176.212.87.21 5 91 1603117 20150914135213
176.14.1.106 1 44 1383656 20150923031154
90.154.89.88 1 44 1383656 20150910032257
89.23.161.80 5 48 1665912 20150911235433
31.128.149.115 5 48 1665912 20150918201738
31.128.150.212 8 51 1722333 20150928215648
95.24.57.206 1 44 1383656 20150916040228
128.73.236.204 5 48 1665912 20150922191524
5.165.243.76 1 44 1383656 20150930014540
178.125.144.225 5 48 1665912 20150914142840
5.45.192.109 5 43 1645765 20150926131410
2.94.75.124 5 48 1665912 20150930122255
37.120.160.188 1 2 57647 20150928100251
62.122.88.249 5 48 1665912 20150918213344
89.23.166.237 5 48 1665912 20150914093444
5.164.102.205 1 44 1383656 20150929002700
188.233.57.84 5 48 1665912 20150929190438
89.23.178.57 5 48 1594277 20150919174022
31.173.85.68 5 48 1665912 20150909193112
217.118.66.143 1 12 350117 20150924082128
217.118.81.208 1 42 1374554 20150919105449
31.135.83.66 0 3 145867 
31.128.153.24 5 48 1665912 20150922211935
62.122.90.205 6 49 1731364 20150924101117
31.128.146.97 5 48 1665912 20150930204021
95.153.134.4 5 48 1665912 20150909080327
2.94.95.73 5 48 1665912 20150914135651
217.118.81.230 3 41 691571 20150909103722
89.23.146.17 5 48 1665912 20150928220813
89.23.153.60 5 50 1630245 20150921153042
89.23.165.199 4 47 1657540 20150928212241
213.234.14.234 10 96 3200868 20150925141555
89.23.128.124 5 48 1665912 20150925222154
188.32.230.238 0 3 145867 
31.130.24.30 5 48 1285262 20150921132539
89.23.165.129 5 48 1665912 20150915122906
89.23.156.5 4 47 1657540 20150930160015
176.14.73.84 1 44 1383656 20150924061734
95.182.77.25 5 48 1665912 20150907143706
31.130.0.115 5 48 1665912 20150912101606
END_VISITOR

# Date - Pages - Hits - Bandwidth - Visits
BEGIN_DAY 26
20150904 1 5 95829 1
20150905 1 5 95829 1
20150907 136 1403 38319651 24
20150908 136 1133 37842309 27
20150909 87 850 26937554 19
20150910 104 1081 34900255 24
20150911 128 1302 42225412 29
20150912 63 708 24175215 16
20150913 11 293 8692512 7
20150914 152 1363 43646590 32
20150915 130 1285 42448349 27
20150916 152 1677 50833803 33
20150917 116 1210 42888197 27
20150918 105 1066 36660448 22
20150919 118 1186 40106533 28
20150920 93 893 28530511 23
20150921 186 1869 64914899 43
20150922 87 1037 33256972 21
20150923 124 1227 38224361 30
20150924 79 862 24712535 22
20150925 168 1655 55829535 35
20150926 100 994 33708396 23
20150927 73 799 26094187 18
20150928 131 1205 42144029 28
20150929 131 1184 41473575 28
20150930 145 1611 54831453 33
END_DAY

# Session range - Number of visits
BEGIN_SESSION 7
1h+ 3
5mn-15mn 19
2mn-5mn 16
0s-30s 546
30s-2mn 23
15mn-30mn 10
30mn-1h 4
END_SESSION

# URL - Pages - Bandwidth - Entry - Exit
# The 10 first Pages must be first (order not required for others)
BEGIN_SIDER 17
/ 498 27995022 428 94
/fonts/fontawesome-webfont.woff 469 30238824 2 7
/fonts/rt-icons.woff 459 40860928 3 5
/fonts/fontello.woff 430 3549728 1 361
/fonts/rt-icons.ttf 391 46613456 0 26
/den-rozhdeniya-v-madagaskare.html 244 13766724 186 64
/fonts/fontello.eot 51 759696 0 11
/fonts/rt-icons.eot 51 6088584 0 0
/fonts/fontawesome-webfont.eot 50 2800300 0 16
/fonts/glyphicons-halflings-regular.eot 50 1016750 0 20
/mailchimp/store-address.php 1 104 0 1
/fonts/glyphicons-halflings-regular.woff 9 209880 0 5
/fonts/socialico-webfont.woff 5 103640 0 1
/fonts/socialico-webfont.eot 19 359385 0 0
/fonts/fontello.ttf 6 88368 0 5
/fonts/fontawesome-webfont.ttf 9 1009440 0 0
/thx.html 15 191709 1 5
END_SIDER
